Lab4/waveform.vcd
$version Generated by VerilatedVcd $end
$timescale 1s $end

 $scope module TOP $end
  $var wire  1 /! clk $end
  $var wire 32 1! r[0] [31:0] $end
  $var wire 32 ;! r[10] [31:0] $end
  $var wire 32 <! r[11] [31:0] $end
  $var wire 32 =! r[12] [31:0] $end
  $var wire 32 >! r[13] [31:0] $end
  $var wire 32 ?! r[14] [31:0] $end
  $var wire 32 @! r[15] [31:0] $end
  $var wire 32 A! r[16] [31:0] $end
  $var wire 32 B! r[17] [31:0] $end
  $var wire 32 C! r[18] [31:0] $end
  $var wire 32 D! r[19] [31:0] $end
  $var wire 32 2! r[1] [31:0] $end
  $var wire 32 E! r[20] [31:0] $end
  $var wire 32 F! r[21] [31:0] $end
  $var wire 32 G! r[22] [31:0] $end
  $var wire 32 H! r[23] [31:0] $end
  $var wire 32 I! r[24] [31:0] $end
  $var wire 32 J! r[25] [31:0] $end
  $var wire 32 K! r[26] [31:0] $end
  $var wire 32 L! r[27] [31:0] $end
  $var wire 32 M! r[28] [31:0] $end
  $var wire 32 N! r[29] [31:0] $end
  $var wire 32 3! r[2] [31:0] $end
  $var wire 32 O! r[30] [31:0] $end
  $var wire 32 P! r[31] [31:0] $end
  $var wire 32 4! r[3] [31:0] $end
  $var wire 32 5! r[4] [31:0] $end
  $var wire 32 6! r[5] [31:0] $end
  $var wire 32 7! r[6] [31:0] $end
  $var wire 32 8! r[7] [31:0] $end
  $var wire 32 9! r[8] [31:0] $end
  $var wire 32 :! r[9] [31:0] $end
  $var wire  1 0! start $end
  $scope module PipelineCPU $end
   $var wire  4 * ALUCtl [3:0] $end
   $var wire  2 3 ALUOp_EX [1:0] $end
   $var wire  2 $! ALUOp_ID [1:0] $end
   $var wire  1 0 ALUSrc_EX $end
   $var wire  1 ~ ALUSrc_ID $end
   $var wire 32 [! ALU_in [31:0] $end
   $var wire 32 u ALU_result_EX [31:0] $end
   $var wire  1 d! ALU_result_ID $end
   $var wire 32 ? ALU_result_WB [31:0] $end
   $var wire 32 w ALU_result_mem [31:0] $end
   $var wire  1 z BrEq $end
   $var wire  1 { BrLT $end
   $var wire  2 A EX_ForwardA [1:0] $end
   $var wire  2 B EX_ForwardB [1:0] $end
   $var wire  1 '! Flush_HD $end
   $var wire  1 ,! Flush_ctrl $end
   $var wire 32 C ForwardA_EX [31:0] $end
   $var wire 32 x ForwardA_EX_out [31:0] $end
   $var wire 32 *! ForwardA_ID [31:0] $end
   $var wire 32 D ForwardB_EX [31:0] $end
   $var wire 32 y ForwardB_EX_out [31:0] $end
   $var wire 32 +! ForwardB_ID [31:0] $end
   $var wire 32 E ForwardB_MEM_out [31:0] $end
   $var wire  2 (! ID_ForwardA [1:0] $end
   $var wire  2 )! ID_ForwardB [1:0] $end
   $var wire 32 s Mux_ALU [31:0] $end
   $var wire  2 #! PCSel [1:0] $end
   $var wire 32 k! PC_4_WB [31:0] $end
   $var wire 32 ]! PC_EX [31:0] $end
   $var wire 32 & PC_ID [31:0] $end
   $var wire 32 # PC_IF [31:0] $end
   $var wire 32 X! PC_INPUT [31:0] $end
   $var wire 32 S! PC_R1 [31:0] $end
   $var wire 32 e! PC_WB [31:0] $end
   $var wire 32 Z! PC_branch [31:0] $end
   $var wire 32 b! PC_mem [31:0] $end
   $var wire 32 W! PC_mux1 [31:0] $end
   $var wire 32 V! PC_muxed [31:0] $end
   $var wire 32 . PC_plus4_EX [31:0] $end
   $var wire 32 i PC_plus4_ID [31:0] $end
   $var wire 32 $ PC_plus4_IF [31:0] $end
   $var wire 32 , PC_plus4_MEM [31:0] $end
   $var wire 32 + PC_plus4_WB [31:0] $end
   $var wire  1 &! PCorR1 $end
   $var wire 32 i! RS1E_data [31:0] $end
   $var wire 32 j! RS2E_data [31:0] $end
   $var wire  1 %! RePC $end
   $var wire 32 T! adder_2_result [31:0] $end
   $var wire 32 l! adder_2_src [31:0] $end
   $var wire  1 r check $end
   $var wire  1 /! clk $end
   $var wire  3 ^! funct3_EX [2:0] $end
   $var wire  3 l funct3_ID [2:0] $end
   $var wire  7 _! funct7_EX [6:0] $end
   $var wire  7 m funct7_ID [6:0] $end
   $var wire 32 4 imm_EX [31:0] $end
   $var wire 32 q imm_ID [31:0] $end
   $var wire 32 5 inst_EX [31:0] $end
   $var wire 32 j inst_ID [31:0] $end
   $var wire 32 % inst_IF [31:0] $end
   $var wire 32 8 inst_MEM [31:0] $end
   $var wire 32 ' inst_WB [31:0] $end
   $var wire 32 f! memRdata_WB [31:0] $end
   $var wire  1 t memRead_EX $end
   $var wire  1 | memRead_ID $end
   $var wire  1 v memRead_mem $end
   $var wire  1 / memWrite_EX $end
   $var wire  1 } memWrite_ID $end
   $var wire  1 ; memWrite_mem $end
   $var wire 32 \! mem_data [31:0] $end
   $var wire  2 2 memtoReg_EX [1:0] $end
   $var wire  2 "! memtoReg_ID [1:0] $end
   $var wire  2 @ memtoReg_WB [1:0] $end
   $var wire  2 = memtoReg_mem [1:0] $end
   $var wire  7 k opcode_ID [6:0] $end
   $var wire 32 1! r[0] [31:0] $end
   $var wire 32 ;! r[10] [31:0] $end
   $var wire 32 <! r[11] [31:0] $end
   $var wire 32 =! r[12] [31:0] $end
   $var wire 32 >! r[13] [31:0] $end
   $var wire 32 ?! r[14] [31:0] $end
   $var wire 32 @! r[15] [31:0] $end
   $var wire 32 A! r[16] [31:0] $end
   $var wire 32 B! r[17] [31:0] $end
   $var wire 32 C! r[18] [31:0] $end
   $var wire 32 D! r[19] [31:0] $end
   $var wire 32 2! r[1] [31:0] $end
   $var wire 32 E! r[20] [31:0] $end
   $var wire 32 F! r[21] [31:0] $end
   $var wire 32 G! r[22] [31:0] $end
   $var wire 32 H! r[23] [31:0] $end
   $var wire 32 I! r[24] [31:0] $end
   $var wire 32 J! r[25] [31:0] $end
   $var wire 32 K! r[26] [31:0] $end
   $var wire 32 L! r[27] [31:0] $end
   $var wire 32 M! r[28] [31:0] $end
   $var wire 32 N! r[29] [31:0] $end
   $var wire 32 3! r[2] [31:0] $end
   $var wire 32 O! r[30] [31:0] $end
   $var wire 32 P! r[31] [31:0] $end
   $var wire 32 4! r[3] [31:0] $end
   $var wire 32 5! r[4] [31:0] $end
   $var wire 32 6! r[5] [31:0] $end
   $var wire 32 7! r[6] [31:0] $end
   $var wire 32 8! r[7] [31:0] $end
   $var wire 32 9! r[8] [31:0] $end
   $var wire 32 :! r[9] [31:0] $end
   $var wire  5 - rd [4:0] $end
   $var wire 32 Q! rd1 [31:0] $end
   $var wire 32 `! rd1_EX [31:0] $end
   $var wire 32 g! rd1_muxed [31:0] $end
   $var wire 32 R! rd2 [31:0] $end
   $var wire 32 a! rd2_EX [31:0] $end
   $var wire 32 c! rd2_mem [31:0] $end
   $var wire 32 h! rd2_muxed [31:0] $end
   $var wire 32 > rd_WB [31:0] $end
   $var wire 32 U! rd_mem [31:0] $end
   $var wire  1 Y! regWrite $end
   $var wire  1 1 regWrite_EX $end
   $var wire  1 !! regWrite_ID $end
   $var wire  1 ( regWrite_WB $end
   $var wire  1 < regWrite_mem $end
   $var wire  5 n rs1 [4:0] $end
   $var wire  5 6 rs1_EX [4:0] $end
   $var wire  5 o rs2 [4:0] $end
   $var wire  5 7 rs2_EX [4:0] $end
   $var wire  5 : rs_WB_EX [4:0] $end
   $var wire  5 p rs_WB_ID [4:0] $end
   $var wire  5 9 rs_WB_mem [4:0] $end
   $var wire 32 h shifted_imm [31:0] $end
   $var wire  1 0! start $end
   $var wire 32 ) write_back [31:0] $end
   $scope module m_ALU $end
    $var wire 32 x A [31:0] $end
    $var wire 32 u ALUOut [31:0] $end
    $var wire  4 * ALUctl [3:0] $end
    $var wire 32 s B [31:0] $end
   $upscope $end
   $scope module m_ALUCtrl $end
    $var wire  4 * ALUCtl [3:0] $end
    $var wire  2 3 ALUOp [1:0] $end
    $var wire  3 G funct3 [2:0] $end
    $var wire  1 F funct7 $end
   $upscope $end
   $scope module m_Adder_1 $end
    $var wire 32 m! a [31:0] $end
    $var wire 32 # b [31:0] $end
    $var wire 32 $ sum [31:0] $end
   $upscope $end
   $scope module m_Adder_2 $end
    $var wire 32 S! a [31:0] $end
    $var wire 32 h b [31:0] $end
    $var wire 32 T! sum [31:0] $end
   $upscope $end
   $scope module m_BranchComp $end
    $var wire 32 *! A [31:0] $end
    $var wire 32 +! B [31:0] $end
    $var wire  1 z BrEq $end
    $var wire  1 { BrLT $end
   $upscope $end
   $scope module m_Control $end
    $var wire  2 $! ALUOp [1:0] $end
    $var wire  1 ~ ALUSrc $end
    $var wire  1 z BrEq $end
    $var wire  1 { BrLT $end
    $var wire  1 ,! Flush_ctrl $end
    $var wire  2 #! PCSel [1:0] $end
    $var wire  1 &! PCorR1 $end
    $var wire 12 -! ctrl [11:0] $end
    $var wire  3 l funct3 [2:0] $end
    $var wire  1 | memRead $end
    $var wire  1 } memWrite $end
    $var wire  2 "! memtoReg [1:0] $end
    $var wire  7 k opcode [6:0] $end
    $var wire  1 !! regWrite $end
   $upscope $end
   $scope module m_DataMemory $end
    $var wire 32 w address [31:0] $end
    $var wire  1 /! clk $end
    $var wire  1 v memRead $end
    $var wire  1 ; memWrite $end
    $var wire 32 U! readData [31:0] $end
    $var wire  1 0! rst $end
    $var wire 32 E writeData [31:0] $end
   $upscope $end
   $scope module m_EX_MEM_Reg $end
    $var wire 32 u ALUOut_i [31:0] $end
    $var wire 32 w ALUOut_o [31:0] $end
    $var wire  1 /! clk $end
    $var wire 32 5 inst_i [31:0] $end
    $var wire 32 8 inst_o [31:0] $end
    $var wire  1 t memRead_i $end
    $var wire  1 v memRead_o $end
    $var wire  1 / memWrite_i $end
    $var wire  1 ; memWrite_o $end
    $var wire  2 2 memtoReg_i [1:0] $end
    $var wire  2 = memtoReg_o [1:0] $end
    $var wire 32 . pc_i [31:0] $end
    $var wire 32 , pc_o [31:0] $end
    $var wire 32 y rd2_i [31:0] $end
    $var wire 32 E rd2_o [31:0] $end
    $var wire  1 1 regWrite_i $end
    $var wire  1 < regWrite_o $end
    $var wire  1 0! rst $end
   $upscope $end
   $scope module m_ForwardingUnit $end
    $var wire  2 A ex_ForwardA [1:0] $end
    $var wire  2 B ex_ForwardB [1:0] $end
    $var wire  5 6 ex_R1 [4:0] $end
    $var wire  5 7 ex_R2 [4:0] $end
    $var wire  5 : ex_Rd [4:0] $end
    $var wire  1 1 ex_RegWrite $end
    $var wire  2 (! id_ForwardA [1:0] $end
    $var wire  2 )! id_ForwardB [1:0] $end
    $var wire  5 n id_R1 [4:0] $end
    $var wire  5 o id_R2 [4:0] $end
    $var wire  5 9 mem_Rd [4:0] $end
    $var wire  1 < mem_RegWrite $end
    $var wire  5 - wb_Rd [4:0] $end
    $var wire  1 ( wb_RegWrite $end
   $upscope $end
   $scope module m_HazardDetection $end
    $var wire  1 z BrEq $end
    $var wire  1 { BrLT $end
    $var wire  1 '! Flush_HD $end
    $var wire  1 %! RePC $end
    $var wire  1 t ex_MemRead $end
    $var wire  5 : ex_Rd [4:0] $end
    $var wire  1 1 ex_RegWrite $end
    $var wire  3 l funct3 [2:0] $end
    $var wire  5 n id_R1 [4:0] $end
    $var wire  5 o id_R2 [4:0] $end
    $var wire  1 v mem_Memread $end
    $var wire  5 9 mem_Rd [4:0] $end
    $var wire  7 k opcode [6:0] $end
   $upscope $end
   $scope module m_ID_EX_Reg $end
    $var wire  1 ~ ALUsrc_i $end
    $var wire  1 0 ALUsrc_o $end
    $var wire  2 $! AlUop_i [1:0] $end
    $var wire  2 3 AlUop_o [1:0] $end
    $var wire  1 '! Flush_HD $end
    $var wire 32 i PC_IDEX_i [31:0] $end
    $var wire 32 . PC_IDEX_o [31:0] $end
    $var wire  1 /! clk $end
    $var wire 32 q imm_IDEX_i [31:0] $end
    $var wire 32 4 imm_IDEX_o [31:0] $end
    $var wire 32 j inst_id_i [31:0] $end
    $var wire 32 5 inst_id_o [31:0] $end
    $var wire  1 } memWrite_i $end
    $var wire  1 / memWrite_o $end
    $var wire  1 | memread_i $end
    $var wire  1 t memread_o $end
    $var wire  2 "! memtoReg_i [1:0] $end
    $var wire  2 2 memtoReg_o [1:0] $end
    $var wire 32 *! rd1_IDEX_i [31:0] $end
    $var wire 32 C rd1_IDEX_o [31:0] $end
    $var wire 32 +! rd2_IDEX_i [31:0] $end
    $var wire 32 D rd2_IDEX_o [31:0] $end
    $var wire  1 !! regWrite_i $end
    $var wire  1 1 regWrite_o $end
    $var wire  1 0! rst $end
   $upscope $end
   $scope module m_IF_ID_Reg $end
    $var wire  1 '! Flush_HD $end
    $var wire  1 ,! Flush_ctrl $end
    $var wire  1 %! RePC $end
    $var wire  1 /! clk $end
    $var wire 32 % inst_i [31:0] $end
    $var wire 32 j inst_o [31:0] $end
    $var wire 32 $ pc_4_i [31:0] $end
    $var wire 32 i pc_4_o [31:0] $end
    $var wire 32 # pc_i [31:0] $end
    $var wire 32 & pc_o [31:0] $end
    $var wire  1 0! rst $end
   $upscope $end
   $scope module m_ImmGen $end
    $var wire 32 q imm [31:0] $end
    $var wire 32 j inst [31:0] $end
   $upscope $end
   $scope module m_InstMem $end
    $var wire 32 % inst [31:0] $end
    $var wire 32 # readAddr [31:0] $end
   $upscope $end
   $scope module m_MEM_WB_Reg $end
    $var wire 32 w ALUOut_WB_i [31:0] $end
    $var wire 32 ? ALUOut_WB_o [31:0] $end
    $var wire 32 , PC4_WB_i [31:0] $end
    $var wire 32 + PC4_WB_o [31:0] $end
    $var wire  1 /! clk $end
    $var wire 32 8 inst_i [31:0] $end
    $var wire 32 ' inst_o [31:0] $end
    $var wire 32 U! memReadData_WB_i [31:0] $end
    $var wire 32 > memReadData_WB_o [31:0] $end
    $var wire  2 = memtoReg_i [1:0] $end
    $var wire  2 @ memtoReg_o [1:0] $end
    $var wire  1 < regWrite_i $end
    $var wire  1 ( regWrite_o $end
    $var wire  1 0! rst $end
   $upscope $end
   $scope module m_Mux_ALU $end
    $var wire 32 s out [31:0] $end
    $var wire 32 y s0 [31:0] $end
    $var wire 32 4 s1 [31:0] $end
    $var wire  1 0 sel $end
    $var wire 32 n! size [31:0] $end
   $upscope $end
   $scope module m_Mux_EX_ForwardA $end
    $var wire 32 x out [31:0] $end
    $var wire 32 C s0 [31:0] $end
    $var wire 32 ) s1 [31:0] $end
    $var wire 32 w s2 [31:0] $end
    $var wire  2 A sel [1:0] $end
    $var wire 32 n! size [31:0] $end
   $upscope $end
   $scope module m_Mux_EX_ForwardB $end
    $var wire 32 y out [31:0] $end
    $var wire 32 D s0 [31:0] $end
    $var wire 32 ) s1 [31:0] $end
    $var wire 32 w s2 [31:0] $end
    $var wire  2 B sel [1:0] $end
    $var wire 32 n! size [31:0] $end
   $upscope $end
   $scope module m_Mux_ID_ForwardA $end
    $var wire 32 *! out [31:0] $end
    $var wire 32 Q! s0 [31:0] $end
    $var wire 32 w s1 [31:0] $end
    $var wire 32 ) s2 [31:0] $end
    $var wire 32 u s3 [31:0] $end
    $var wire  2 (! sel [1:0] $end
    $var wire 32 n! size [31:0] $end
   $upscope $end
   $scope module m_Mux_ID_ForwardB $end
    $var wire 32 +! out [31:0] $end
    $var wire 32 R! s0 [31:0] $end
    $var wire 32 w s1 [31:0] $end
    $var wire 32 ) s2 [31:0] $end
    $var wire 32 u s3 [31:0] $end
    $var wire  2 )! sel [1:0] $end
    $var wire 32 n! size [31:0] $end
   $upscope $end
   $scope module m_Mux_PC_1 $end
    $var wire 32 W! out [31:0] $end
    $var wire 32 $ s0 [31:0] $end
    $var wire 32 T! s1 [31:0] $end
    $var wire  1 .! sel $end
    $var wire 32 n! size [31:0] $end
   $upscope $end
   $scope module m_Mux_PC_2 $end
    $var wire 32 V! out [31:0] $end
    $var wire 32 W! s0 [31:0] $end
    $var wire 32 # s1 [31:0] $end
    $var wire  1 %! sel $end
    $var wire 32 n! size [31:0] $end
   $upscope $end
   $scope module m_Mux_PCorR1 $end
    $var wire 32 S! out [31:0] $end
    $var wire 32 & s0 [31:0] $end
    $var wire 32 *! s1 [31:0] $end
    $var wire  1 &! sel $end
    $var wire 32 n! size [31:0] $end
   $upscope $end
   $scope module m_Mux_WriteData $end
    $var wire 32 ) out [31:0] $end
    $var wire 32 ? s0 [31:0] $end
    $var wire 32 > s1 [31:0] $end
    $var wire 32 + s2 [31:0] $end
    $var wire  2 @ sel [1:0] $end
    $var wire 32 n! size [31:0] $end
   $upscope $end
   $scope module m_PC $end
    $var wire  1 /! clk $end
    $var wire 32 V! pc_i [31:0] $end
    $var wire 32 # pc_o [31:0] $end
    $var wire  1 0! rst $end
   $upscope $end
   $scope module m_Register $end
    $var wire  1 /! clk $end
    $var wire 32 Q! readData1 [31:0] $end
    $var wire 32 R! readData2 [31:0] $end
    $var wire  5 n readReg1 [4:0] $end
    $var wire  5 o readReg2 [4:0] $end
    $var wire  1 ( regWrite $end
    $var wire 32 H regs[0] [31:0] $end
    $var wire 32 R regs[10] [31:0] $end
    $var wire 32 S regs[11] [31:0] $end
    $var wire 32 T regs[12] [31:0] $end
    $var wire 32 U regs[13] [31:0] $end
    $var wire 32 V regs[14] [31:0] $end
    $var wire 32 W regs[15] [31:0] $end
    $var wire 32 X regs[16] [31:0] $end
    $var wire 32 Y regs[17] [31:0] $end
    $var wire 32 Z regs[18] [31:0] $end
    $var wire 32 [ regs[19] [31:0] $end
    $var wire 32 I regs[1] [31:0] $end
    $var wire 32 \ regs[20] [31:0] $end
    $var wire 32 ] regs[21] [31:0] $end
    $var wire 32 ^ regs[22] [31:0] $end
    $var wire 32 _ regs[23] [31:0] $end
    $var wire 32 ` regs[24] [31:0] $end
    $var wire 32 a regs[25] [31:0] $end
    $var wire 32 b regs[26] [31:0] $end
    $var wire 32 c regs[27] [31:0] $end
    $var wire 32 d regs[28] [31:0] $end
    $var wire 32 e regs[29] [31:0] $end
    $var wire 32 J regs[2] [31:0] $end
    $var wire 32 f regs[30] [31:0] $end
    $var wire 32 g regs[31] [31:0] $end
    $var wire 32 K regs[3] [31:0] $end
    $var wire 32 L regs[4] [31:0] $end
    $var wire 32 M regs[5] [31:0] $end
    $var wire 32 N regs[6] [31:0] $end
    $var wire 32 O regs[7] [31:0] $end
    $var wire 32 P regs[8] [31:0] $end
    $var wire 32 Q regs[9] [31:0] $end
    $var wire  1 0! rst $end
    $var wire 32 ) writeData [31:0] $end
    $var wire  5 - writeReg [4:0] $end
   $upscope $end
   $scope module m_ShiftLeftOne $end
    $var wire 32 q i [31:0] $end
    $var wire 32 h o [31:0] $end
   $upscope $end
  $upscope $end
 $upscope $end
$enddefinitions $end


#0
b00000000000000000000000000000000 #
b00000000000000000000000000000100 $
b00001000000000000000000100010011 %
b00000000000000000000000000000000 &
b00000000000000000000000000000000 '
0(
b00000000000000000000000000000000 )
b0010 *
b00000000000000000000000000000000 +
b00000000000000000000000000000000 ,
b00000 -
b00000000000000000000000000000000 .
0/
00
01
b00 2
b00 3
b00000000000000000000000000000000 4
b00000000000000000000000000000000 5
b00000 6
b00000 7
b00000000000000000000000000000000 8
b00000 9
b00000 :
0;
0<
b00 =
b00000000000000000000000000000000 >
b00000000000000000000000000000000 ?
b00 @
b00 A
b00 B
b00000000000000000000000000000000 C
b00000000000000000000000000000000 D
b00000000000000000000000000000000 E
0F
b000 G
b00000000000000000000000000000000 H
b00000000000000000000000000000000 I
b00000000000000000000000000000000 J
b00000000000000000000000000000000 K
b00000000000000000000000000000000 L
b00000000000000000000000000000000 M
b00000000000000000000000000000000 N
b00000000000000000000000000000000 O
b00000000000000000000000000000000 P
b00000000000000000000000000000000 Q
b00000000000000000000000000000000 R
b00000000000000000000000000000000 S
b00000000000000000000000000000000 T
b00000000000000000000000000000000 U
b00000000000000000000000000000000 V
b00000000000000000000000000000000 W
b00000000000000000000000000000000 X
b00000000000000000000000000000000 Y
b00000000000000000000000000000000 Z
b00000000000000000000000000000000 [
b00000000000000000000000000000000 \
b00000000000000000000000000000000 ]
b00000000000000000000000000000000 ^
b00000000000000000000000000000000 _
b00000000000000000000000000000000 `
b00000000000000000000000000000000 a
b00000000000000000000000000000000 b
b00000000000000000000000000000000 c
b00000000000000000000000000000000 d
b00000000000000000000000000000000 e
b00000000000000000000000000000000 f
b00000000000000000000000000000000 g
b00000000000000000000000000000000 h
b00000000000000000000000000000000 i
b00000000000000000000000000000000 j
b0000000 k
b000 l
b0000000 m
b00000 n
b00000 o
b00000 p
b00000000000000000000000000000000 q
0r
b00000000000000000000000000000000 s
0t
b00000000000000000000000000000000 u
0v
b00000000000000000000000000000000 w
b00000000000000000000000000000000 x
b00000000000000000000000000000000 y
1z
0{
0|
0}
0~
0!!
b00 "!
b00 #!
b00 $!
0%!
0&!
0'!
b00 (!
b00 )!
b00000000000000000000000000000000 *!
b00000000000000000000000000000000 +!
0,!
b000000000000 -!
0.!
0/!
10!
b00000000000000000000000000000000 1!
b00000000000000000000000000000000 2!
b00000000000000000000000000000000 3!
b00000000000000000000000000000000 4!
b00000000000000000000000000000000 5!
b00000000000000000000000000000000 6!
b00000000000000000000000000000000 7!
b00000000000000000000000000000000 8!
b00000000000000000000000000000000 9!
b00000000000000000000000000000000 :!
b00000000000000000000000000000000 ;!
b00000000000000000000000000000000 <!
b00000000000000000000000000000000 =!
b00000000000000000000000000000000 >!
b00000000000000000000000000000000 ?!
b00000000000000000000000000000000 @!
b00000000000000000000000000000000 A!
b00000000000000000000000000000000 B!
b00000000000000000000000000000000 C!
b00000000000000000000000000000000 D!
b00000000000000000000000000000000 E!
b00000000000000000000000000000000 F!
b00000000000000000000000000000000 G!
b00000000000000000000000000000000 H!
b00000000000000000000000000000000 I!
b00000000000000000000000000000000 J!
b00000000000000000000000000000000 K!
b00000000000000000000000000000000 L!
b00000000000000000000000000000000 M!
b00000000000000000000000000000000 N!
b00000000000000000000000000000000 O!
b00000000000000000000000000000000 P!
b00000000000000000000000000000000 Q!
b00000000000000000000000000000000 R!
b00000000000000000000000000000000 S!
b00000000000000000000000000000000 T!
b00000000000000000000000000000000 U!
b00000000000000000000000000000100 V!
b00000000000000000000000000000100 W!
b00000000000000000000000000000000 X!
0Y!
b00000000000000000000000000000000 Z!
b00000000000000000000000000000000 [!
b00000000000000000000000000000000 \!
b00000000000000000000000000000000 ]!
b000 ^!
b0000000 _!
b00000000000000000000000000000000 `!
b00000000000000000000000000000000 a!
b00000000000000000000000000000000 b!
b00000000000000000000000000000000 c!
0d!
b00000000000000000000000000000000 e!
b00000000000000000000000000000000 f!
b00000000000000000000000000000000 g!
b00000000000000000000000000000000 h!
b00000000000000000000000000000000 i!
b00000000000000000000000000000000 j!
b00000000000000000000000000000000 k!
b00000000000000000000000000000000 l!
b00000000000000000000000000000100 m!
b00000000000000000000000000100000 n!
#1
b00000000000000000000000000010011 5
b00000000000000000000000010000000 J
1/!
00!
b00000000000000000000000010000000 3!
#2
b00000000000000000000000000000100 #
b00000000000000000000000000001000 $
b00000000100000000000001010010011 %
b00000000000000000000000000000000 5
b00000000000000000000000000010011 8
b00000000000000000000000100000000 h
b00000000000000000000000000000100 i
b00001000000000000000000100010011 j
b0010011 k
b0000100 m
b00010 p
b00000000000000000000000010000000 q
1~
1!!
b11 $!
b000001101100 -!
0/!
10!
b00000000000000000000000100000000 T!
b00000000000000000000000000001000 V!
b00000000000000000000000000001000 W!
#3
1/!
#4
b00000000000000000000000000001000 #
b00000000000000000000000000001100 $
b00000000110000000000001111101111 %
b00000000000000000000000000000100 &
b00000000000000000000000000010011 '
b00000000000000000000000000000100 .
10
11
b11 3
b00000000000000000000000010000000 4
b00001000000000000000000100010011 5
b00000000000000000000000000000000 8
b00010 :
b00000000000000000000000000010000 h
b00000000000000000000000000001000 i
b00000000100000000000001010010011 j
b0000000 m
b01000 o
b00101 p
b00000000000000000000000000001000 q
b00000000000000000000000010000000 s
b00000000000000000000000010000000 u
0/!
b00000000000000000000000000000100 S!
b00000000000000000000000000010100 T!
b00000000000000000000000000001100 V!
b00000000000000000000000000001100 W!
#5
1/!
#6
b00000000000000000000000000001100 #
b00000000000000000000000000010000 $
b00000000000100000000010100010011 %
b00000000000000000000000000001000 &
b00000000000000000000000000000000 '
b00000000000000000000000000000100 ,
b00000000000000000000000000001000 .
b00000000000000000000000000001000 4
b00000000100000000000001010010011 5
b01000 7
b00001000000000000000000100010011 8
b00010 9
b00101 :
1<
b00000000000000000000000000001100 h
b00000000000000000000000000001100 i
b00000000110000000000001111101111 j
b1101111 k
b01100 o
b00111 p
b00000000000000000000000000000110 q
b00000000000000000000000000001000 s
b00000000000000000000000000001000 u
b00000000000000000000000010000000 w
0~
b10 "!
b01 #!
b00 $!
1,!
b010100000110 -!
1.!
0/!
b00000000000000000000000000001000 S!
b00000000000000000000000000010100 V!
b00000000000000000000000000010100 W!
#7
1/!
#8
b00000000000000000000000000010100 #
b00000000000000000000000000011000 $
b00000000011100010010000000100011 %
b00000000000000000000000000000000 &
b00001000000000000000000100010011 '
1(
b00000000000000000000000010000000 )
b00000000000000000000000000000100 +
b00000000000000000000000000001000 ,
b00010 -
b00000000000000000000000000001100 .
00
b10 2
b00 3
b00000000000000000000000000000110 4
b00000000110000000000001111101111 5
b01100 7
b00000000100000000000001010010011 8
b00101 9
b00111 :
b00000000000000000000000010000000 ?
b00000000000000000000000000000000 h
b00000000000000000000000000000000 i
b00000000000000000000000000010011 j
b0010011 k
b00000 o
b00000 p
b00000000000000000000000000000000 q
b00000000000000000000000000000000 s
b00000000000000000000000000000000 u
b00000000000000000000000000001000 w
1~
b00 "!
b00 #!
b11 $!
0,!
b000001101100 -!
0.!
0/!
b00000000000000000000000000000000 S!
b00000000000000000000000000000000 T!
b00000000000000000000000000011000 V!
b00000000000000000000000000011000 W!
#9
1/!
#10
b00000000000000000000000000011000 #
b00000000000000000000000000011100 $
b00000000000000010010000010000011 %
b00000000000000000000000000010100 &
b00000000100000000000001010010011 '
b00000000000000000000000000001000 )
b00000000000000000000000000001000 +
b00000000000000000000000000001100 ,
b00101 -
b00000000000000000000000000000000 .
10
b00 2
b11 3
b00000000000000000000000000000000 4
b00000000000000000000000000010011 5
b00000 7
b00000000110000000000001111101111 8
b00111 9
b00000 :
b10 =
b00000000000000000000000000001000 ?
b00000000000000000000000000011000 i
b00000000011100010010000000100011 j
b0100011 k
b010 l
b00010 n
b00111 o
b00000000000000000000000000000000 w
0z
1}
0!!
b00 $!
b01 )!
b00000000000000000000000010000000 *!
b000000011000 -!
0/!
b00000000000000000000000010000000 Q!
b00000000000000000000000000010100 S!
b00000000000000000000000000010100 T!
b00000000000000000000000000011100 V!
b00000000000000000000000000011100 W!
#11
1/!
#12
b00000000000000000000000000011100 #
b00000000000000000000000000100000 $
b00000000000000001000000001100111 %
b00000000000000000000000000011000 &
b00000000110000000000001111101111 '
b00000000000000000000000000001100 )
b00000000000000000000000000001100 +
b00000000000000000000000000000000 ,
b00111 -
b00000000000000000000000000011000 .
1/
01
b00 3
b00000000011100010010000000100011 5
b00010 6
b00111 7
b00000000000000000000000000010011 8
b00000 9
b00 =
b00000000000000000000000000000000 ?
b10 @
b01 B
b00000000000000000000000010000000 C
b010 G
b00000000000000000000000000001000 M
b00000000000000000000000000011100 i
b00000000000000010010000010000011 j
b0000011 k
b00000 o
b00001 p
b00000000000000000000000010000000 u
b00000000000000000000000010000000 x
b00000000000000000000000000001100 y
1|
0}
1!!
b01 "!
b00 )!
b001010001100 -!
0/!
b00000000000000000000000000001000 6!
b00000000000000000000000000011000 S!
b00000000000000000000000000011000 T!
b00000000000000000000000000100000 V!
b00000000000000000000000000100000 W!
#13
1/!
#14
b00000000000000000000000000100000 #
b00000000000000000000000000100100 $
b00000000001000000000010100010011 %
b00000000000000000000000000011100 &
b00000000000000000000000000010011 '
b00000000000000000000000000000000 )
b00000000000000000000000000000000 +
b00000000000000000000000000011000 ,
b00000 -
b00000000000000000000000000011100 .
0/
11
b01 2
b00000000000000010010000010000011 5
b00000 7
b00000000011100010010000000100011 8
b00001 :
1;
0<
b00 @
b00 B
b00000000000000000000000000001100 E
b00000000000000000000000000001100 O
b00000000000000000000000000100000 i
b00000000000000001000000001100111 j
b1100111 k
b000 l
b00001 n
b00000 p
1t
b00000000000000000000000010000000 w
b00000000000000000000000000000000 y
0|
b10 "!
b01 #!
1%!
1&!
1'!
b11 (!
1,!
b010100001111 -!
1.!
0/!
b00000000000000000000000000001100 8!
b00000000000000000000000000000000 Q!
b00000000000000000000000010000000 S!
b00000000000000000000000010000000 T!
b00000000000000000000000010000000 W!
#15
1/!
#16
b00000000011100010010000000100011 '
0(
b00000000000000000000000010000000 )
b00000000000000000000000000011000 +
b00000000000000000000000000011100 ,
b00000000000000000000000000000000 .
00
01
b00 2
b00000000000000000000000000010011 5
b00000 6
b00000000000000010010000010000011 8
b00001 9
b00000 :
0;
1<
b01 =
b00000000000000000000000010000000 ?
b00000000000000000000000000000000 C
b00000000000000000000000000000000 E
b000 G
0t
b00000000000000000000000000000000 u
1v
b00000000000000000000000000000000 x
b01 (!
0/!
b00000000000000000000000000001100 U!
#17
1/!
#18
b00000000000000010010000010000011 '
1(
b00000000000000000000000000001100 )
b00000000000000000000000000011100 +
b00000000000000000000000000000000 ,
b00001 -
b00000000000000000000000000010011 8
b00000 9
0<
b00 =
b00000000000000000000000000001100 >
b01 @
0v
b00000000000000000000000000000000 w
0%!
0'!
b10 (!
b00000000000000000000000000001100 *!
0/!
b00000000000000000000000000001100 S!
b00000000000000000000000000001100 T!
b00000000000000000000000000001100 V!
b00000000000000000000000000001100 W!
#19
1/!
