Lab2/waveform.vcd
$version Generated by VerilatedVcd $end
$timescale 1s $end

 $scope module TOP $end
  $var wire  1 _ clk $end
  $var wire 32 a r[0] [31:0] $end
  $var wire 32 k r[10] [31:0] $end
  $var wire 32 l r[11] [31:0] $end
  $var wire 32 m r[12] [31:0] $end
  $var wire 32 n r[13] [31:0] $end
  $var wire 32 o r[14] [31:0] $end
  $var wire 32 p r[15] [31:0] $end
  $var wire 32 q r[16] [31:0] $end
  $var wire 32 r r[17] [31:0] $end
  $var wire 32 s r[18] [31:0] $end
  $var wire 32 t r[19] [31:0] $end
  $var wire 32 b r[1] [31:0] $end
  $var wire 32 u r[20] [31:0] $end
  $var wire 32 v r[21] [31:0] $end
  $var wire 32 w r[22] [31:0] $end
  $var wire 32 x r[23] [31:0] $end
  $var wire 32 y r[24] [31:0] $end
  $var wire 32 z r[25] [31:0] $end
  $var wire 32 { r[26] [31:0] $end
  $var wire 32 | r[27] [31:0] $end
  $var wire 32 } r[28] [31:0] $end
  $var wire 32 ~ r[29] [31:0] $end
  $var wire 32 c r[2] [31:0] $end
  $var wire 32 !! r[30] [31:0] $end
  $var wire 32 "! r[31] [31:0] $end
  $var wire 32 d r[3] [31:0] $end
  $var wire 32 e r[4] [31:0] $end
  $var wire 32 f r[5] [31:0] $end
  $var wire 32 g r[6] [31:0] $end
  $var wire 32 h r[7] [31:0] $end
  $var wire 32 i r[8] [31:0] $end
  $var wire 32 j r[9] [31:0] $end
  $var wire  1 ` start $end
  $scope module SingleCycleCPU $end
   $var wire  4 T ALUCtl [3:0] $end
   $var wire  2 O ALUOp [1:0] $end
   $var wire  1 L ALUSrc $end
   $var wire 32 \ ALU_in2 [31:0] $end
   $var wire 32 ] ALU_result [31:0] $end
   $var wire  1 Z BrEq $end
   $var wire  1 [ BrLT $end
   $var wire 32 C PC [31:0] $end
   $var wire  2 W PCSel [1:0] $end
   $var wire 32 V PC_INPUT [31:0] $end
   $var wire 32 P PC_plus4 [31:0] $end
   $var wire  1 _ clk $end
   $var wire  3 E funct3 [2:0] $end
   $var wire  7 F funct7 [6:0] $end
   $var wire 32 Q imm [31:0] $end
   $var wire 32 U inst [31:0] $end
   $var wire  1 J memRead $end
   $var wire  1 K memWrite $end
   $var wire 32 $! mem_data [31:0] $end
   $var wire  2 N memtoReg [1:0] $end
   $var wire  7 D opcode [6:0] $end
   $var wire 32 S pc_branch [31:0] $end
   $var wire 32 %! pc_j_to [31:0] $end
   $var wire 32 a r[0] [31:0] $end
   $var wire 32 k r[10] [31:0] $end
   $var wire 32 l r[11] [31:0] $end
   $var wire 32 m r[12] [31:0] $end
   $var wire 32 n r[13] [31:0] $end
   $var wire 32 o r[14] [31:0] $end
   $var wire 32 p r[15] [31:0] $end
   $var wire 32 q r[16] [31:0] $end
   $var wire 32 r r[17] [31:0] $end
   $var wire 32 s r[18] [31:0] $end
   $var wire 32 t r[19] [31:0] $end
   $var wire 32 b r[1] [31:0] $end
   $var wire 32 u r[20] [31:0] $end
   $var wire 32 v r[21] [31:0] $end
   $var wire 32 w r[22] [31:0] $end
   $var wire 32 x r[23] [31:0] $end
   $var wire 32 y r[24] [31:0] $end
   $var wire 32 z r[25] [31:0] $end
   $var wire 32 { r[26] [31:0] $end
   $var wire 32 | r[27] [31:0] $end
   $var wire 32 } r[28] [31:0] $end
   $var wire 32 ~ r[29] [31:0] $end
   $var wire 32 c r[2] [31:0] $end
   $var wire 32 !! r[30] [31:0] $end
   $var wire 32 "! r[31] [31:0] $end
   $var wire 32 d r[3] [31:0] $end
   $var wire 32 e r[4] [31:0] $end
   $var wire 32 f r[5] [31:0] $end
   $var wire 32 g r[6] [31:0] $end
   $var wire 32 h r[7] [31:0] $end
   $var wire 32 i r[8] [31:0] $end
   $var wire 32 j r[9] [31:0] $end
   $var wire  5 I rd [4:0] $end
   $var wire 32 X rd1 [31:0] $end
   $var wire 32 Y rd2 [31:0] $end
   $var wire  1 M regWrite $end
   $var wire  5 G rs1 [4:0] $end
   $var wire  5 H rs2 [4:0] $end
   $var wire  1 ` rst_n $end
   $var wire 32 R shifted_imm [31:0] $end
   $var wire  1 ` start $end
   $var wire 32 #! write_back [31:0] $end
   $var wire  1 ^ zero $end
   $scope module m_ALU $end
    $var wire 32 X A [31:0] $end
    $var wire 32 ] ALUOut [31:0] $end
    $var wire  4 T ALUctl [3:0] $end
    $var wire 32 \ B [31:0] $end
    $var wire  1 ^ zero $end
   $upscope $end
   $scope module m_ALUCtrl $end
    $var wire  4 T ALUCtl [3:0] $end
    $var wire  2 O ALUOp [1:0] $end
    $var wire  3 E funct3 [2:0] $end
    $var wire  7 F funct7 [6:0] $end
   $upscope $end
   $scope module m_Adder_1 $end
    $var wire 32 &! a [31:0] $end
    $var wire 32 C b [31:0] $end
    $var wire 32 P sum [31:0] $end
   $upscope $end
   $scope module m_Adder_2 $end
    $var wire 32 C a [31:0] $end
    $var wire 32 Q b [31:0] $end
    $var wire 32 S sum [31:0] $end
   $upscope $end
   $scope module m_BranchComp $end
    $var wire 32 X A [31:0] $end
    $var wire 32 Y B [31:0] $end
    $var wire  1 Z BrEq $end
    $var wire  1 [ BrLT $end
   $upscope $end
   $scope module m_Control $end
    $var wire  2 O ALUOp [1:0] $end
    $var wire  1 L ALUSrc $end
    $var wire  1 Z BrEq $end
    $var wire  1 [ BrLT $end
    $var wire  2 W PCSel [1:0] $end
    $var wire  3 E funct3 [2:0] $end
    $var wire  1 J memRead $end
    $var wire  1 K memWrite $end
    $var wire  2 N memtoReg [1:0] $end
    $var wire  7 D opcode [6:0] $end
    $var wire  1 M regWrite $end
   $upscope $end
   $scope module m_DataMemory $end
    $var wire 32 ] address [31:0] $end
    $var wire  1 _ clk $end
    $var wire  1 J memRead $end
    $var wire  1 K memWrite $end
    $var wire 32 $! readData [31:0] $end
    $var wire  1 ` rst $end
    $var wire 32 Y writeData [31:0] $end
   $upscope $end
   $scope module m_ImmGen $end
    $var wire 32 Q imm [31:0] $end
    $var wire 32 U inst [31:0] $end
    $var wire  7 D opcode [6:0] $end
   $upscope $end
   $scope module m_InstMem $end
    $var wire 32 U inst [31:0] $end
    $var wire 32 C readAddr [31:0] $end
   $upscope $end
   $scope module m_Mux_ALU $end
    $var wire 32 \ out [31:0] $end
    $var wire 32 Y s0 [31:0] $end
    $var wire 32 Q s1 [31:0] $end
    $var wire  1 L sel $end
    $var wire 32 '! size [31:0] $end
   $upscope $end
   $scope module m_Mux_PC $end
    $var wire 32 V out [31:0] $end
    $var wire 32 P s0 [31:0] $end
    $var wire 32 S s1 [31:0] $end
    $var wire 32 ] s2 [31:0] $end
    $var wire  2 W sel [1:0] $end
    $var wire 32 '! size [31:0] $end
   $upscope $end
   $scope module m_Mux_WriteData $end
    $var wire 32 #! out [31:0] $end
    $var wire 32 ] s0 [31:0] $end
    $var wire 32 $! s1 [31:0] $end
    $var wire 32 P s2 [31:0] $end
    $var wire  2 N sel [1:0] $end
    $var wire 32 '! size [31:0] $end
   $upscope $end
   $scope module m_PC $end
    $var wire  1 _ clk $end
    $var wire 32 V pc_i [31:0] $end
    $var wire 32 C pc_o [31:0] $end
    $var wire  1 ` rst $end
   $upscope $end
   $scope module m_Register $end
    $var wire  1 _ clk $end
    $var wire 32 X readData1 [31:0] $end
    $var wire 32 Y readData2 [31:0] $end
    $var wire  5 G readReg1 [4:0] $end
    $var wire  5 H readReg2 [4:0] $end
    $var wire  1 M regWrite $end
    $var wire 32 # regs[0] [31:0] $end
    $var wire 32 - regs[10] [31:0] $end
    $var wire 32 . regs[11] [31:0] $end
    $var wire 32 / regs[12] [31:0] $end
    $var wire 32 0 regs[13] [31:0] $end
    $var wire 32 1 regs[14] [31:0] $end
    $var wire 32 2 regs[15] [31:0] $end
    $var wire 32 3 regs[16] [31:0] $end
    $var wire 32 4 regs[17] [31:0] $end
    $var wire 32 5 regs[18] [31:0] $end
    $var wire 32 6 regs[19] [31:0] $end
    $var wire 32 $ regs[1] [31:0] $end
    $var wire 32 7 regs[20] [31:0] $end
    $var wire 32 8 regs[21] [31:0] $end
    $var wire 32 9 regs[22] [31:0] $end
    $var wire 32 : regs[23] [31:0] $end
    $var wire 32 ; regs[24] [31:0] $end
    $var wire 32 < regs[25] [31:0] $end
    $var wire 32 = regs[26] [31:0] $end
    $var wire 32 > regs[27] [31:0] $end
    $var wire 32 ? regs[28] [31:0] $end
    $var wire 32 @ regs[29] [31:0] $end
    $var wire 32 % regs[2] [31:0] $end
    $var wire 32 A regs[30] [31:0] $end
    $var wire 32 B regs[31] [31:0] $end
    $var wire 32 & regs[3] [31:0] $end
    $var wire 32 ' regs[4] [31:0] $end
    $var wire 32 ( regs[5] [31:0] $end
    $var wire 32 ) regs[6] [31:0] $end
    $var wire 32 * regs[7] [31:0] $end
    $var wire 32 + regs[8] [31:0] $end
    $var wire 32 , regs[9] [31:0] $end
    $var wire  1 ` rst $end
    $var wire 32 #! writeData [31:0] $end
    $var wire  5 I writeReg [4:0] $end
   $upscope $end
   $scope module m_ShiftLeftOne $end
    $var wire 32 Q i [31:0] $end
    $var wire 32 R o [31:0] $end
   $upscope $end
  $upscope $end
 $upscope $end
$enddefinitions $end


#0
b00000000000000000000000000000000 #
b00000000000000000000000000000000 $
b00000000000000000000000000000000 %
b00000000000000000000000000000000 &
b00000000000000000000000000000000 '
b00000000000000000000000000000000 (
b00000000000000000000000000000000 )
b00000000000000000000000000000000 *
b00000000000000000000000000000000 +
b00000000000000000000000000000000 ,
b00000000000000000000000000000000 -
b00000000000000000000000000000000 .
b00000000000000000000000000000000 /
b00000000000000000000000000000000 0
b00000000000000000000000000000000 1
b00000000000000000000000000000000 2
b00000000000000000000000000000000 3
b00000000000000000000000000000000 4
b00000000000000000000000000000000 5
b00000000000000000000000000000000 6
b00000000000000000000000000000000 7
b00000000000000000000000000000000 8
b00000000000000000000000000000000 9
b00000000000000000000000000000000 :
b00000000000000000000000000000000 ;
b00000000000000000000000000000000 <
b00000000000000000000000000000000 =
b00000000000000000000000000000000 >
b00000000000000000000000000000000 ?
b00000000000000000000000000000000 @
b00000000000000000000000000000000 A
b00000000000000000000000000000000 B
b00000000000000000000000000000000 C
b0010011 D
b000 E
b0000101 F
b00000 G
b00011 H
b01000 I
0J
0K
1L
1M
b00 N
b10 O
b00000000000000000000000000000100 P
b00000000000000000000000010100011 Q
b00000000000000000000000101000110 R
b00000000000000000000000010100011 S
b0010 T
b00001010001100000000010000010011 U
b00000000000000000000000000000100 V
b00 W
b00000000000000000000000000000000 X
b00000000000000000000000000000000 Y
1Z
0[
b00000000000000000000000010100011 \
b00000000000000000000000010100011 ]
0^
0_
1`
b00000000000000000000000000000000 a
b00000000000000000000000000000000 b
b00000000000000000000000000000000 c
b00000000000000000000000000000000 d
b00000000000000000000000000000000 e
b00000000000000000000000000000000 f
b00000000000000000000000000000000 g
b00000000000000000000000000000000 h
b00000000000000000000000000000000 i
b00000000000000000000000000000000 j
b00000000000000000000000000000000 k
b00000000000000000000000000000000 l
b00000000000000000000000000000000 m
b00000000000000000000000000000000 n
b00000000000000000000000000000000 o
b00000000000000000000000000000000 p
b00000000000000000000000000000000 q
b00000000000000000000000000000000 r
b00000000000000000000000000000000 s
b00000000000000000000000000000000 t
b00000000000000000000000000000000 u
b00000000000000000000000000000000 v
b00000000000000000000000000000000 w
b00000000000000000000000000000000 x
b00000000000000000000000000000000 y
b00000000000000000000000000000000 z
b00000000000000000000000000000000 {
b00000000000000000000000000000000 |
b00000000000000000000000000000000 }
b00000000000000000000000000000000 ~
b00000000000000000000000000000000 !!
b00000000000000000000000000000000 "!
b00000000000000000000000010100011 #!
b00000000000000000000000000000000 $!
b00000000000000000000000000000000 %!
b00000000000000000000000000000100 &!
b00000000000000000000000000100000 '!
#1
b00000000000000000000000010000000 %
1_
0`
b00000000000000000000000010000000 c
#2
b00000000000000000000000010100011 +
b00000000000000000000000000000100 C
b1111111 F
b00010 G
b11100 H
b00010 I
b00000000000000000000000000001000 P
b11111111111111111111111111111100 Q
b11111111111111111111111111111000 R
b00000000000000000000000000000000 S
b11111111110000010000000100010011 U
b00000000000000000000000000001000 V
b00000000000000000000000010000000 X
0Z
b11111111111111111111111111111100 \
b00000000000000000000000001111100 ]
0_
1`
b00000000000000000000000010100011 i
b00000000000000000000000001111100 #!
#3
1_
#4
b00000000000000000000000001111100 %
b00000000000000000000000000001000 C
b0100011 D
b010 E
b0000000 F
b01000 H
b00000 I
1K
0M
b00 O
b00000000000000000000000000001100 P
b00000000000000000000000000000000 Q
b00000000000000000000000000000000 R
b00000000000000000000000000001000 S
b00000000100000010010000000100011 U
b00000000000000000000000000001100 V
b00000000000000000000000001111100 X
b00000000000000000000000010100011 Y
1[
b00000000000000000000000000000000 \
0_
b00000000000000000000000001111100 c
#5
1_
#6
b00000000000000000000000000001100 C
b0110011 D
b000 E
b00000 G
b00000 H
b01000 I
0K
0L
1M
b10 O
b00000000000000000000000000010000 P
b00000000000000000000000000001100 S
b00000000000000000000010000110011 U
b00000000000000000000000000010000 V
b00000000000000000000000000000000 X
b00000000000000000000000000000000 Y
1Z
0[
b00000000000000000000000000000000 ]
1^
0_
b00000000000000000000000000000000 #!
#7
1_
#8
b00000000000000000000000000000000 +
b00000000000000000000000000010000 C
b0010011 D
b00101 I
1L
b00000000000000000000000000010100 P
b00000000000000000000000000010000 S
b00000000000000000000001010010011 U
b00000000000000000000000000010100 V
0_
b00000000000000000000000000000000 i
#9
1_
#10
b00000000000000000000000000010100 C
b010 E
b00101 G
b00111 H
b00110 I
b00000000000000000000000000011000 P
b00000000000000000000000000000111 Q
b00000000000000000000000000001110 R
b00000000000000000000000000011011 S
b0111 T
b00000000011100101010001100010011 U
b00000000000000000000000000011000 V
b00000000000000000000000000000111 \
b00000000000000000000000000000001 ]
0^
0_
b00000000000000000000000000000001 #!
#11
1_
#12
b00000000000000000000000000000001 )
b00000000000000000000000000011000 C
b1100011 D
b000 E
b00110 G
b00000 H
b01100 I
0L
0M
b01 O
b00000000000000000000000000011100 P
b00000000000000000000000000001100 Q
b00000000000000000000000000011000 R
b00000000000000000000000000100100 S
b0110 T
b00000000000000110000011001100011 U
b00000000000000000000000000011100 V
b00000000000000000000000000000001 X
0Z
b00000000000000000000000000000000 \
0_
b00000000000000000000000000000001 g
#13
1_
#14
b00000000000000000000000000011100 C
b0010011 D
b00101 G
b00001 H
b00101 I
1L
1M
b10 O
b00000000000000000000000000100000 P
b00000000000000000000000000000001 Q
b00000000000000000000000000000010 R
b00000000000000000000000000011101 S
b0010 T
b00000000000100101000001010010011 U
b00000000000000000000000000100000 V
b00000000000000000000000000000000 X
1Z
b00000000000000000000000000000001 \
0_
#15
1_
#16
b00000000000000000000000000000001 (
b00000000000000000000000000100000 C
b1100011 D
b1111111 F
b00000 G
b00000 H
b10101 I
0L
0M
b01 O
b00000000000000000000000000100100 P
b11111111111111111111111111110100 Q
b11111111111111111111111111101000 R
b00000000000000000000000000010100 S
b0110 T
b11111110000000000000101011100011 U
b00000000000000000000000000010100 V
b01 W
b00000000000000000000000000000000 \
b00000000000000000000000000000000 ]
1^
0_
b00000000000000000000000000000001 f
b00000000000000000000000000000000 #!
#17
1_
#18
b00000000000000000000000000010100 C
b0010011 D
b010 E
b0000000 F
b00101 G
b00111 H
b00110 I
1L
1M
b10 O
b00000000000000000000000000011000 P
b00000000000000000000000000000111 Q
b00000000000000000000000000001110 R
b00000000000000000000000000011011 S
b0111 T
b00000000011100101010001100010011 U
b00000000000000000000000000011000 V
b00 W
b00000000000000000000000000000001 X
0Z
b00000000000000000000000000000111 \
b00000000000000000000000000000001 ]
0^
0_
b00000000000000000000000000000001 #!
#19
1_
#20
b00000000000000000000000000011000 C
b1100011 D
b000 E
b00110 G
b00000 H
b01100 I
0L
0M
b01 O
b00000000000000000000000000011100 P
b00000000000000000000000000001100 Q
b00000000000000000000000000011000 R
b00000000000000000000000000100100 S
b0110 T
b00000000000000110000011001100011 U
b00000000000000000000000000011100 V
b00000000000000000000000000000000 \
0_
#21
1_
#22
b00000000000000000000000000011100 C
b0010011 D
b00101 G
b00001 H
b00101 I
1L
1M
b10 O
b00000000000000000000000000100000 P
b00000000000000000000000000000001 Q
b00000000000000000000000000000010 R
b00000000000000000000000000011101 S
b0010 T
b00000000000100101000001010010011 U
b00000000000000000000000000100000 V
b00000000000000000000000000000001 \
b00000000000000000000000000000010 ]
0_
b00000000000000000000000000000010 #!
#23
1_
#24
b00000000000000000000000000000010 (
b00000000000000000000000000100000 C
b1100011 D
b1111111 F
b00000 G
b00000 H
b10101 I
0L
0M
b01 O
b00000000000000000000000000100100 P
b11111111111111111111111111110100 Q
b11111111111111111111111111101000 R
b00000000000000000000000000010100 S
b0110 T
b11111110000000000000101011100011 U
b00000000000000000000000000010100 V
b01 W
b00000000000000000000000000000000 X
1Z
b00000000000000000000000000000000 \
b00000000000000000000000000000000 ]
1^
0_
b00000000000000000000000000000010 f
b00000000000000000000000000000000 #!
#25
1_
#26
b00000000000000000000000000010100 C
b0010011 D
b010 E
b0000000 F
b00101 G
b00111 H
b00110 I
1L
1M
b10 O
b00000000000000000000000000011000 P
b00000000000000000000000000000111 Q
b00000000000000000000000000001110 R
b00000000000000000000000000011011 S
b0111 T
b00000000011100101010001100010011 U
b00000000000000000000000000011000 V
b00 W
b00000000000000000000000000000010 X
0Z
b00000000000000000000000000000111 \
b00000000000000000000000000000001 ]
0^
0_
b00000000000000000000000000000001 #!
#27
1_
#28
b00000000000000000000000000011000 C
b1100011 D
b000 E
b00110 G
b00000 H
b01100 I
0L
0M
b01 O
b00000000000000000000000000011100 P
b00000000000000000000000000001100 Q
b00000000000000000000000000011000 R
b00000000000000000000000000100100 S
b0110 T
b00000000000000110000011001100011 U
b00000000000000000000000000011100 V
b00000000000000000000000000000001 X
b00000000000000000000000000000000 \
0_
#29
1_
#30
b00000000000000000000000000011100 C
b0010011 D
b00101 G
b00001 H
b00101 I
1L
1M
b10 O
b00000000000000000000000000100000 P
b00000000000000000000000000000001 Q
b00000000000000000000000000000010 R
b00000000000000000000000000011101 S
b0010 T
b00000000000100101000001010010011 U
b00000000000000000000000000100000 V
b00000000000000000000000000000010 X
b00000000000000000000000000000001 \
b00000000000000000000000000000011 ]
0_
b00000000000000000000000000000011 #!
#31
1_
#32
b00000000000000000000000000000011 (
b00000000000000000000000000100000 C
b1100011 D
b1111111 F
b00000 G
b00000 H
b10101 I
0L
0M
b01 O
b00000000000000000000000000100100 P
b11111111111111111111111111110100 Q
b11111111111111111111111111101000 R
b00000000000000000000000000010100 S
b0110 T
b11111110000000000000101011100011 U
b00000000000000000000000000010100 V
b01 W
b00000000000000000000000000000000 X
1Z
b00000000000000000000000000000000 \
b00000000000000000000000000000000 ]
1^
0_
b00000000000000000000000000000011 f
b00000000000000000000000000000000 #!
#33
1_
#34
b00000000000000000000000000010100 C
b0010011 D
b010 E
b0000000 F
b00101 G
b00111 H
b00110 I
1L
1M
b10 O
b00000000000000000000000000011000 P
b00000000000000000000000000000111 Q
b00000000000000000000000000001110 R
b00000000000000000000000000011011 S
b0111 T
b00000000011100101010001100010011 U
b00000000000000000000000000011000 V
b00 W
b00000000000000000000000000000011 X
0Z
b00000000000000000000000000000111 \
b00000000000000000000000000000001 ]
0^
0_
b00000000000000000000000000000001 #!
#35
1_
#36
b00000000000000000000000000011000 C
b1100011 D
b000 E
b00110 G
b00000 H
b01100 I
0L
0M
b01 O
b00000000000000000000000000011100 P
b00000000000000000000000000001100 Q
b00000000000000000000000000011000 R
b00000000000000000000000000100100 S
b0110 T
b00000000000000110000011001100011 U
b00000000000000000000000000011100 V
b00000000000000000000000000000001 X
b00000000000000000000000000000000 \
0_
#37
1_
#38
b00000000000000000000000000011100 C
b0010011 D
b00101 G
b00001 H
b00101 I
1L
1M
b10 O
b00000000000000000000000000100000 P
b00000000000000000000000000000001 Q
b00000000000000000000000000000010 R
b00000000000000000000000000011101 S
b0010 T
b00000000000100101000001010010011 U
b00000000000000000000000000100000 V
b00000000000000000000000000000011 X
b00000000000000000000000000000001 \
b00000000000000000000000000000100 ]
0_
b00000000000000000000000000000100 #!
#39
1_
#40
b00000000000000000000000000000100 (
b00000000000000000000000000100000 C
b1100011 D
b1111111 F
b00000 G
b00000 H
b10101 I
0L
0M
b01 O
b00000000000000000000000000100100 P
b11111111111111111111111111110100 Q
b11111111111111111111111111101000 R
b00000000000000000000000000010100 S
b0110 T
b11111110000000000000101011100011 U
b00000000000000000000000000010100 V
b01 W
b00000000000000000000000000000000 X
1Z
b00000000000000000000000000000000 \
b00000000000000000000000000000000 ]
1^
0_
b00000000000000000000000000000100 f
b00000000000000000000000000000000 #!
#41
1_
#42
b00000000000000000000000000010100 C
b0010011 D
b010 E
b0000000 F
b00101 G
b00111 H
b00110 I
1L
1M
b10 O
b00000000000000000000000000011000 P
b00000000000000000000000000000111 Q
b00000000000000000000000000001110 R
b00000000000000000000000000011011 S
b0111 T
b00000000011100101010001100010011 U
b00000000000000000000000000011000 V
b00 W
b00000000000000000000000000000100 X
0Z
b00000000000000000000000000000111 \
b00000000000000000000000000000001 ]
0^
0_
b00000000000000000000000000000001 #!
#43
1_
#44
b00000000000000000000000000011000 C
b1100011 D
b000 E
b00110 G
b00000 H
b01100 I
0L
0M
b01 O
b00000000000000000000000000011100 P
b00000000000000000000000000001100 Q
b00000000000000000000000000011000 R
b00000000000000000000000000100100 S
b0110 T
b00000000000000110000011001100011 U
b00000000000000000000000000011100 V
b00000000000000000000000000000001 X
b00000000000000000000000000000000 \
0_
#45
1_
#46
b00000000000000000000000000011100 C
b0010011 D
b00101 G
b00001 H
b00101 I
1L
1M
b10 O
b00000000000000000000000000100000 P
b00000000000000000000000000000001 Q
b00000000000000000000000000000010 R
b00000000000000000000000000011101 S
b0010 T
b00000000000100101000001010010011 U
b00000000000000000000000000100000 V
b00000000000000000000000000000100 X
b00000000000000000000000000000001 \
b00000000000000000000000000000101 ]
0_
b00000000000000000000000000000101 #!
#47
1_
#48
b00000000000000000000000000000101 (
b00000000000000000000000000100000 C
b1100011 D
b1111111 F
b00000 G
b00000 H
b10101 I
0L
0M
b01 O
b00000000000000000000000000100100 P
b11111111111111111111111111110100 Q
b11111111111111111111111111101000 R
b00000000000000000000000000010100 S
b0110 T
b11111110000000000000101011100011 U
b00000000000000000000000000010100 V
b01 W
b00000000000000000000000000000000 X
1Z
b00000000000000000000000000000000 \
b00000000000000000000000000000000 ]
1^
0_
b00000000000000000000000000000101 f
b00000000000000000000000000000000 #!
#49
1_
#50
b00000000000000000000000000010100 C
b0010011 D
b010 E
b0000000 F
b00101 G
b00111 H
b00110 I
1L
1M
b10 O
b00000000000000000000000000011000 P
b00000000000000000000000000000111 Q
b00000000000000000000000000001110 R
b00000000000000000000000000011011 S
b0111 T
b00000000011100101010001100010011 U
b00000000000000000000000000011000 V
b00 W
b00000000000000000000000000000101 X
0Z
b00000000000000000000000000000111 \
b00000000000000000000000000000001 ]
0^
0_
b00000000000000000000000000000001 #!
#51
1_
#52
b00000000000000000000000000011000 C
b1100011 D
b000 E
b00110 G
b00000 H
b01100 I
0L
0M
b01 O
b00000000000000000000000000011100 P
b00000000000000000000000000001100 Q
b00000000000000000000000000011000 R
b00000000000000000000000000100100 S
b0110 T
b00000000000000110000011001100011 U
b00000000000000000000000000011100 V
b00000000000000000000000000000001 X
b00000000000000000000000000000000 \
0_
#53
1_
#54
b00000000000000000000000000011100 C
b0010011 D
b00101 G
b00001 H
b00101 I
1L
1M
b10 O
b00000000000000000000000000100000 P
b00000000000000000000000000000001 Q
b00000000000000000000000000000010 R
b00000000000000000000000000011101 S
b0010 T
b00000000000100101000001010010011 U
b00000000000000000000000000100000 V
b00000000000000000000000000000101 X
b00000000000000000000000000000001 \
b00000000000000000000000000000110 ]
0_
b00000000000000000000000000000110 #!
#55
1_
#56
b00000000000000000000000000000110 (
b00000000000000000000000000100000 C
b1100011 D
b1111111 F
b00000 G
b00000 H
b10101 I
0L
0M
b01 O
b00000000000000000000000000100100 P
b11111111111111111111111111110100 Q
b11111111111111111111111111101000 R
b00000000000000000000000000010100 S
b0110 T
b11111110000000000000101011100011 U
b00000000000000000000000000010100 V
b01 W
b00000000000000000000000000000000 X
1Z
b00000000000000000000000000000000 \
b00000000000000000000000000000000 ]
1^
0_
b00000000000000000000000000000110 f
b00000000000000000000000000000000 #!
#57
1_
#58
b00000000000000000000000000010100 C
b0010011 D
b010 E
b0000000 F
b00101 G
b00111 H
b00110 I
1L
1M
b10 O
b00000000000000000000000000011000 P
b00000000000000000000000000000111 Q
b00000000000000000000000000001110 R
b00000000000000000000000000011011 S
b0111 T
b00000000011100101010001100010011 U
b00000000000000000000000000011000 V
b00 W
b00000000000000000000000000000110 X
0Z
b00000000000000000000000000000111 \
b00000000000000000000000000000001 ]
0^
0_
b00000000000000000000000000000001 #!
#59
1_
#60
b00000000000000000000000000011000 C
b1100011 D
b000 E
b00110 G
b00000 H
b01100 I
0L
0M
b01 O
b00000000000000000000000000011100 P
b00000000000000000000000000001100 Q
b00000000000000000000000000011000 R
b00000000000000000000000000100100 S
b0110 T
b00000000000000110000011001100011 U
b00000000000000000000000000011100 V
b00000000000000000000000000000001 X
b00000000000000000000000000000000 \
0_
#61
1_
#62
b00000000000000000000000000011100 C
b0010011 D
b00101 G
b00001 H
b00101 I
1L
1M
b10 O
b00000000000000000000000000100000 P
b00000000000000000000000000000001 Q
b00000000000000000000000000000010 R
b00000000000000000000000000011101 S
b0010 T
b00000000000100101000001010010011 U
b00000000000000000000000000100000 V
b00000000000000000000000000000110 X
b00000000000000000000000000000001 \
b00000000000000000000000000000111 ]
0_
b00000000000000000000000000000111 #!
#63
1_
#64
b00000000000000000000000000000111 (
b00000000000000000000000000100000 C
b1100011 D
b1111111 F
b00000 G
b00000 H
b10101 I
0L
0M
b01 O
b00000000000000000000000000100100 P
b11111111111111111111111111110100 Q
b11111111111111111111111111101000 R
b00000000000000000000000000010100 S
b0110 T
b11111110000000000000101011100011 U
b00000000000000000000000000010100 V
b01 W
b00000000000000000000000000000000 X
1Z
b00000000000000000000000000000000 \
b00000000000000000000000000000000 ]
1^
0_
b00000000000000000000000000000111 f
b00000000000000000000000000000000 #!
#65
1_
#66
b00000000000000000000000000010100 C
b0010011 D
b010 E
b0000000 F
b00101 G
b00111 H
b00110 I
1L
1M
b10 O
b00000000000000000000000000011000 P
b00000000000000000000000000000111 Q
b00000000000000000000000000001110 R
b00000000000000000000000000011011 S
b0111 T
b00000000011100101010001100010011 U
b00000000000000000000000000011000 V
b00 W
b00000000000000000000000000000111 X
0Z
b00000000000000000000000000000111 \
0_
#67
1_
#68
b00000000000000000000000000000000 )
b00000000000000000000000000011000 C
b1100011 D
b000 E
b00110 G
b00000 H
b01100 I
0L
0M
b01 O
b00000000000000000000000000011100 P
b00000000000000000000000000001100 Q
b00000000000000000000000000011000 R
b00000000000000000000000000100100 S
b0110 T
b00000000000000110000011001100011 U
b00000000000000000000000000100100 V
b01 W
b00000000000000000000000000000000 X
1Z
b00000000000000000000000000000000 \
0_
b00000000000000000000000000000000 g
#69
1_
#70
b00000000000000000000000000100100 C
b0010011 D
b110 E
b01010 H
b00110 I
1L
1M
b10 O
b00000000000000000000000000101000 P
b00000000000000000000000000001010 Q
b00000000000000000000000000010100 R
b00000000000000000000000000101110 S
b0001 T
b00000000101000110110001100010011 U
b00000000000000000000000000101000 V
b00 W
b00000000000000000000000000001010 \
b00000000000000000000000000001010 ]
0^
0_
b00000000000000000000000000001010 #!
#71
1_
#72
b00000000000000000000000000001010 )
b00000000000000000000000000101000 C
b0000011 D
b010 E
b00010 G
b00000 H
b01000 I
1J
b01 N
b00 O
b00000000000000000000000000101100 P
b00000000000000000000000000000000 Q
b00000000000000000000000000000000 R
b00000000000000000000000000101000 S
b0010 T
b00000000000000010010010000000011 U
b00000000000000000000000000101100 V
b00000000000000000000000001111100 X
0Z
b00000000000000000000000000000000 \
b00000000000000000000000001111100 ]
0_
b00000000000000000000000000001010 g
b00000000000000000000000010100011 #!
b00000000000000000000000010100011 $!
#73
1_
#74
b00000000000000000000000010100011 +
b00000000000000000000000000101100 C
b0010011 D
b000 E
b00100 H
b00010 I
0J
b00 N
b10 O
b00000000000000000000000000110000 P
b00000000000000000000000000000100 Q
b00000000000000000000000000001000 R
b00000000000000000000000000110000 S
b00000000010000010000000100010011 U
b00000000000000000000000000110000 V
b00000000000000000000000000000100 \
b00000000000000000000000010000000 ]
0_
b00000000000000000000000010100011 i
b00000000000000000000000010000000 #!
#75
1_
#76
b00000000000000000000000010000000 %
b00000000000000000000000000110000 C
b0000000 D
b00000 G
b00000 H
b00000 I
0L
0M
b00 O
b00000000000000000000000000110100 P
b00000000000000000000000000000000 Q
b00000000000000000000000000000000 R
b00000000000000000000000000000000 U
b00000000000000000000000000110100 V
b00000000000000000000000000000000 X
1Z
b00000000000000000000000000000000 \
b00000000000000000000000000000000 ]
1^
0_
b00000000000000000000000010000000 c
b00000000000000000000000000000000 #!
#77
1_
#78
b00000000000000000000000000110100 C
b00000000000000000000000000111000 P
b00000000000000000000000000110100 S
b00000000000000000000000000111000 V
0_
#79
1_
#80
b00000000000000000000000000111000 C
b00000000000000000000000000111100 P
b00000000000000000000000000111000 S
b00000000000000000000000000111100 V
0_
#81
1_
#82
b00000000000000000000000000111100 C
b00000000000000000000000001000000 P
b00000000000000000000000000111100 S
b00000000000000000000000001000000 V
0_
#83
1_
#84
b00000000000000000000000001000000 C
b00000000000000000000000001000100 P
b00000000000000000000000001000000 S
b00000000000000000000000001000100 V
0_
#85
1_
#86
b00000000000000000000000001000100 C
b00000000000000000000000001001000 P
b00000000000000000000000001000100 S
b00000000000000000000000001001000 V
0_
