Lab3/waveform.vcd
$version Generated by VerilatedVcd $end
$timescale 1s $end

 $scope module TOP $end
  $var wire  1 $! clk $end
  $var wire 32 &! r[0] [31:0] $end
  $var wire 32 0! r[10] [31:0] $end
  $var wire 32 1! r[11] [31:0] $end
  $var wire 32 2! r[12] [31:0] $end
  $var wire 32 3! r[13] [31:0] $end
  $var wire 32 4! r[14] [31:0] $end
  $var wire 32 5! r[15] [31:0] $end
  $var wire 32 6! r[16] [31:0] $end
  $var wire 32 7! r[17] [31:0] $end
  $var wire 32 8! r[18] [31:0] $end
  $var wire 32 9! r[19] [31:0] $end
  $var wire 32 '! r[1] [31:0] $end
  $var wire 32 :! r[20] [31:0] $end
  $var wire 32 ;! r[21] [31:0] $end
  $var wire 32 <! r[22] [31:0] $end
  $var wire 32 =! r[23] [31:0] $end
  $var wire 32 >! r[24] [31:0] $end
  $var wire 32 ?! r[25] [31:0] $end
  $var wire 32 @! r[26] [31:0] $end
  $var wire 32 A! r[27] [31:0] $end
  $var wire 32 B! r[28] [31:0] $end
  $var wire 32 C! r[29] [31:0] $end
  $var wire 32 (! r[2] [31:0] $end
  $var wire 32 D! r[30] [31:0] $end
  $var wire 32 E! r[31] [31:0] $end
  $var wire 32 )! r[3] [31:0] $end
  $var wire 32 *! r[4] [31:0] $end
  $var wire 32 +! r[5] [31:0] $end
  $var wire 32 ,! r[6] [31:0] $end
  $var wire 32 -! r[7] [31:0] $end
  $var wire 32 .! r[8] [31:0] $end
  $var wire 32 /! r[9] [31:0] $end
  $var wire  1 %! start $end
  $scope module PipelineCPU $end
   $var wire  4 J ALUCtl [3:0] $end
   $var wire  2 T ALUOp_EX [1:0] $end
   $var wire  2 s ALUOp_ID [1:0] $end
   $var wire  1 O ALUSrc_EX $end
   $var wire  1 p ALUSrc_ID $end
   $var wire 32 I ALU_in [31:0] $end
   $var wire 32 w ALU_result_EX [31:0] $end
   $var wire 32 \ ALU_result_WB [31:0] $end
   $var wire 32 y ALU_result_mem [31:0] $end
   $var wire  1 !! BrEq $end
   $var wire  1 "! BrLT $end
   $var wire  2 #! PCSel_ID [1:0] $end
   $var wire 32 L PC_EX [31:0] $end
   $var wire 32 f PC_ID [31:0] $end
   $var wire 32 z PC_IF [31:0] $end
   $var wire 32 F! PC_INPUT [31:0] $end
   $var wire 32 [ PC_WB [31:0] $end
   $var wire 32 e PC_branch [31:0] $end
   $var wire 32 V PC_mem [31:0] $end
   $var wire 32 G! PC_plus4_ID [31:0] $end
   $var wire 32 { PC_plus4_IF [31:0] $end
   $var wire  1 $! clk $end
   $var wire  3 Q funct3_EX [2:0] $end
   $var wire  3 i funct3_ID [2:0] $end
   $var wire  7 R funct7_EX [6:0] $end
   $var wire  7 j funct7_ID [6:0] $end
   $var wire 32 % imm_EX [31:0] $end
   $var wire 32 t imm_ID [31:0] $end
   $var wire 32 g inst_ID [31:0] $end
   $var wire 32 | inst_IF [31:0] $end
   $var wire 32 ] memRdata_WB [31:0] $end
   $var wire  1 M memRead_EX $end
   $var wire  1 n memRead_ID $end
   $var wire  1 x memRead_mem $end
   $var wire  1 N memWrite_EX $end
   $var wire  1 o memWrite_ID $end
   $var wire  1 W memWrite_mem $end
   $var wire 32 I! mem_data [31:0] $end
   $var wire  2 S memtoReg_EX [1:0] $end
   $var wire  2 r memtoReg_ID [1:0] $end
   $var wire  2 ^ memtoReg_WB [1:0] $end
   $var wire  2 Y memtoReg_mem [1:0] $end
   $var wire  7 h opcode_ID [6:0] $end
   $var wire 32 &! r[0] [31:0] $end
   $var wire 32 0! r[10] [31:0] $end
   $var wire 32 1! r[11] [31:0] $end
   $var wire 32 2! r[12] [31:0] $end
   $var wire 32 3! r[13] [31:0] $end
   $var wire 32 4! r[14] [31:0] $end
   $var wire 32 5! r[15] [31:0] $end
   $var wire 32 6! r[16] [31:0] $end
   $var wire 32 7! r[17] [31:0] $end
   $var wire 32 8! r[18] [31:0] $end
   $var wire 32 9! r[19] [31:0] $end
   $var wire 32 '! r[1] [31:0] $end
   $var wire 32 :! r[20] [31:0] $end
   $var wire 32 ;! r[21] [31:0] $end
   $var wire 32 <! r[22] [31:0] $end
   $var wire 32 =! r[23] [31:0] $end
   $var wire 32 >! r[24] [31:0] $end
   $var wire 32 ?! r[25] [31:0] $end
   $var wire 32 @! r[26] [31:0] $end
   $var wire 32 A! r[27] [31:0] $end
   $var wire 32 B! r[28] [31:0] $end
   $var wire 32 C! r[29] [31:0] $end
   $var wire 32 (! r[2] [31:0] $end
   $var wire 32 D! r[30] [31:0] $end
   $var wire 32 E! r[31] [31:0] $end
   $var wire 32 )! r[3] [31:0] $end
   $var wire 32 *! r[4] [31:0] $end
   $var wire 32 +! r[5] [31:0] $end
   $var wire 32 ,! r[6] [31:0] $end
   $var wire 32 -! r[7] [31:0] $end
   $var wire 32 .! r[8] [31:0] $end
   $var wire 32 /! r[9] [31:0] $end
   $var wire  5 K rd [4:0] $end
   $var wire 32 } rd1 [31:0] $end
   $var wire 32 # rd1_EX [31:0] $end
   $var wire 32 ~ rd2 [31:0] $end
   $var wire 32 $ rd2_EX [31:0] $end
   $var wire 32 & rd2_mem [31:0] $end
   $var wire 32 H! rd_mem [31:0] $end
   $var wire  1 G regWrite $end
   $var wire  1 P regWrite_EX $end
   $var wire  1 q regWrite_ID $end
   $var wire  1 X regWrite_mem $end
   $var wire  5 k rs1 [4:0] $end
   $var wire  5 l rs2 [4:0] $end
   $var wire  5 U rs_WB_EX [4:0] $end
   $var wire  5 m rs_WB_ID [4:0] $end
   $var wire  5 Z rs_WB_mem [4:0] $end
   $var wire  1 %! rst_n $end
   $var wire 32 d shifted_imm [31:0] $end
   $var wire  1 %! start $end
   $var wire 32 H write_back [31:0] $end
   $var wire  1 v zero $end
   $scope module m_ALU $end
    $var wire 32 # A [31:0] $end
    $var wire 32 w ALUOut [31:0] $end
    $var wire  4 J ALUctl [3:0] $end
    $var wire 32 I B [31:0] $end
    $var wire  1 v zero $end
   $upscope $end
   $scope module m_ALUCtrl $end
    $var wire  4 J ALUCtl [3:0] $end
    $var wire  2 T ALUOp [1:0] $end
    $var wire  3 Q funct3 [2:0] $end
    $var wire  7 R funct7 [6:0] $end
   $upscope $end
   $scope module m_Adder_1 $end
    $var wire 32 J! a [31:0] $end
    $var wire 32 z b [31:0] $end
    $var wire 32 { sum [31:0] $end
   $upscope $end
   $scope module m_Adder_2 $end
    $var wire 32 f a [31:0] $end
    $var wire 32 t b [31:0] $end
    $var wire 32 e sum [31:0] $end
   $upscope $end
   $scope module m_BranchComp $end
    $var wire 32 } A [31:0] $end
    $var wire 32 ~ B [31:0] $end
    $var wire  1 !! BrEq $end
    $var wire  1 "! BrLT $end
   $upscope $end
   $scope module m_DataMemory $end
    $var wire 32 y address [31:0] $end
    $var wire  1 $! clk $end
    $var wire  1 x memRead $end
    $var wire  1 W memWrite $end
    $var wire 32 H! readData [31:0] $end
    $var wire  1 %! rst $end
    $var wire 32 & writeData [31:0] $end
   $upscope $end
   $scope module m_EX_MEM_Reg $end
    $var wire 32 w ALUOut_i [31:0] $end
    $var wire 32 y ALUOut_o [31:0] $end
    $var wire  5 _ WB_M_control_i [4:0] $end
    $var wire  5 ` WB_M_control_o [4:0] $end
    $var wire  1 $! clk $end
    $var wire 32 $ data_to_mem_i [31:0] $end
    $var wire 32 & data_to_mem_o [31:0] $end
    $var wire 32 L pc_i [31:0] $end
    $var wire 32 V pc_o [31:0] $end
    $var wire  5 U rs_WB_i [4:0] $end
    $var wire  5 Z rs_WB_o [4:0] $end
    $var wire  1 %! rst $end
   $upscope $end
   $scope module m_ID_EX_Reg $end
    $var wire 32 f PC_IDEX_i [31:0] $end
    $var wire 32 L PC_IDEX_o [31:0] $end
    $var wire  1 $! clk $end
    $var wire 18 u ctrl_IDEX_i [17:0] $end
    $var wire 18 a ctrl_IDEX_o [17:0] $end
    $var wire 32 t imm_IDEX_i [31:0] $end
    $var wire 32 % imm_IDEX_o [31:0] $end
    $var wire 32 } rd1_IDEX_i [31:0] $end
    $var wire 32 # rd1_IDEX_o [31:0] $end
    $var wire 32 ~ rd2_IDEX_i [31:0] $end
    $var wire 32 $ rd2_IDEX_o [31:0] $end
    $var wire  5 m rd_IDEX_i [4:0] $end
    $var wire  5 U rd_IDEX_o [4:0] $end
    $var wire  1 %! rst $end
   $upscope $end
   $scope module m_IF_ID_Reg $end
    $var wire  1 $! clk $end
    $var wire 32 | inst_i [31:0] $end
    $var wire 32 g inst_o [31:0] $end
    $var wire 32 { pc_4_i [31:0] $end
    $var wire 32 G! pc_4_o [31:0] $end
    $var wire 32 z pc_i [31:0] $end
    $var wire 32 f pc_o [31:0] $end
    $var wire  1 %! rst $end
   $upscope $end
   $scope module m_ImmGen $end
    $var wire 32 t imm [31:0] $end
    $var wire 32 g inst [31:0] $end
    $var wire  7 h opcode [6:0] $end
   $upscope $end
   $scope module m_InstMem $end
    $var wire 32 | inst [31:0] $end
    $var wire 32 z readAddr [31:0] $end
   $upscope $end
   $scope module m_MEM_WB_Reg $end
    $var wire 32 y ALUOut_WB_i [31:0] $end
    $var wire 32 \ ALUOut_WB_o [31:0] $end
    $var wire 32 V PC4_WB_i [31:0] $end
    $var wire 32 [ PC4_WB_o [31:0] $end
    $var wire  1 $! clk $end
    $var wire  3 b ctrl_WB_i [2:0] $end
    $var wire  3 c ctrl_WB_o [2:0] $end
    $var wire 32 H! memReadData_WB_i [31:0] $end
    $var wire 32 ] memReadData_WB_o [31:0] $end
    $var wire  5 Z rd_WB_i [4:0] $end
    $var wire  5 K rd_WB_o [4:0] $end
    $var wire  1 %! rst $end
   $upscope $end
   $scope module m_Mux_ALU $end
    $var wire 32 I out [31:0] $end
    $var wire 32 $ s0 [31:0] $end
    $var wire 32 % s1 [31:0] $end
    $var wire  1 O sel $end
    $var wire 32 K! size [31:0] $end
   $upscope $end
   $scope module m_Mux_PC $end
    $var wire 32 F! out [31:0] $end
    $var wire 32 { s0 [31:0] $end
    $var wire 32 e s1 [31:0] $end
    $var wire 32 w s2 [31:0] $end
    $var wire  2 #! sel [1:0] $end
    $var wire 32 K! size [31:0] $end
   $upscope $end
   $scope module m_Mux_WriteData $end
    $var wire 32 H out [31:0] $end
    $var wire 32 \ s0 [31:0] $end
    $var wire 32 ] s1 [31:0] $end
    $var wire 32 [ s2 [31:0] $end
    $var wire  2 ^ sel [1:0] $end
    $var wire 32 K! size [31:0] $end
   $upscope $end
   $scope module m_PC $end
    $var wire  1 $! clk $end
    $var wire 32 F! pc_i [31:0] $end
    $var wire 32 z pc_o [31:0] $end
    $var wire  1 %! rst $end
   $upscope $end
   $scope module m_Register $end
    $var wire  1 $! clk $end
    $var wire 32 } readData1 [31:0] $end
    $var wire 32 ~ readData2 [31:0] $end
    $var wire  5 k readReg1 [4:0] $end
    $var wire  5 l readReg2 [4:0] $end
    $var wire  1 G regWrite $end
    $var wire 32 ' regs[0] [31:0] $end
    $var wire 32 1 regs[10] [31:0] $end
    $var wire 32 2 regs[11] [31:0] $end
    $var wire 32 3 regs[12] [31:0] $end
    $var wire 32 4 regs[13] [31:0] $end
    $var wire 32 5 regs[14] [31:0] $end
    $var wire 32 6 regs[15] [31:0] $end
    $var wire 32 7 regs[16] [31:0] $end
    $var wire 32 8 regs[17] [31:0] $end
    $var wire 32 9 regs[18] [31:0] $end
    $var wire 32 : regs[19] [31:0] $end
    $var wire 32 ( regs[1] [31:0] $end
    $var wire 32 ; regs[20] [31:0] $end
    $var wire 32 < regs[21] [31:0] $end
    $var wire 32 = regs[22] [31:0] $end
    $var wire 32 > regs[23] [31:0] $end
    $var wire 32 ? regs[24] [31:0] $end
    $var wire 32 @ regs[25] [31:0] $end
    $var wire 32 A regs[26] [31:0] $end
    $var wire 32 B regs[27] [31:0] $end
    $var wire 32 C regs[28] [31:0] $end
    $var wire 32 D regs[29] [31:0] $end
    $var wire 32 ) regs[2] [31:0] $end
    $var wire 32 E regs[30] [31:0] $end
    $var wire 32 F regs[31] [31:0] $end
    $var wire 32 * regs[3] [31:0] $end
    $var wire 32 + regs[4] [31:0] $end
    $var wire 32 , regs[5] [31:0] $end
    $var wire 32 - regs[6] [31:0] $end
    $var wire 32 . regs[7] [31:0] $end
    $var wire 32 / regs[8] [31:0] $end
    $var wire 32 0 regs[9] [31:0] $end
    $var wire  1 %! rst $end
    $var wire 32 H writeData [31:0] $end
    $var wire  5 K writeReg [4:0] $end
   $upscope $end
   $scope module m_ShiftLeftOne $end
    $var wire 32 t i [31:0] $end
    $var wire 32 d o [31:0] $end
   $upscope $end
   $scope module u_Control $end
    $var wire  2 s ALUOp [1:0] $end
    $var wire  1 p ALUSrc $end
    $var wire  1 !! BrEq $end
    $var wire  1 "! BrLT $end
    $var wire  2 #! PCSel [1:0] $end
    $var wire  3 i funct3 [2:0] $end
    $var wire  1 n memRead $end
    $var wire  1 o memWrite $end
    $var wire  2 r memtoReg [1:0] $end
    $var wire  7 h opcode [6:0] $end
    $var wire  1 q regWrite $end
   $upscope $end
  $upscope $end
 $upscope $end
$enddefinitions $end


#0
b00000000000000000000000000000000 #
b00000000000000000000000000000000 $
b00000000000000000000000000000000 %
b00000000000000000000000000000000 &
b00000000000000000000000000000000 '
b00000000000000000000000000000000 (
b00000000000000000000000000000000 )
b00000000000000000000000000000000 *
b00000000000000000000000000000000 +
b00000000000000000000000000000000 ,
b00000000000000000000000000000000 -
b00000000000000000000000000000000 .
b00000000000000000000000000000000 /
b00000000000000000000000000000000 0
b00000000000000000000000000000000 1
b00000000000000000000000000000000 2
b00000000000000000000000000000000 3
b00000000000000000000000000000000 4
b00000000000000000000000000000000 5
b00000000000000000000000000000000 6
b00000000000000000000000000000000 7
b00000000000000000000000000000000 8
b00000000000000000000000000000000 9
b00000000000000000000000000000000 :
b00000000000000000000000000000000 ;
b00000000000000000000000000000000 <
b00000000000000000000000000000000 =
b00000000000000000000000000000000 >
b00000000000000000000000000000000 ?
b00000000000000000000000000000000 @
b00000000000000000000000000000000 A
b00000000000000000000000000000000 B
b00000000000000000000000000000000 C
b00000000000000000000000000000000 D
b00000000000000000000000000000000 E
b00000000000000000000000000000000 F
0G
b00000000000000000000000000000000 H
b00000000000000000000000000000000 I
b0010 J
b00000 K
b00000000000000000000000000000000 L
0M
0N
0O
0P
b000 Q
b0000000 R
b00 S
b00 T
b00000 U
b00000000000000000000000000000000 V
0W
0X
b00 Y
b00000 Z
b00000000000000000000000000000000 [
b00000000000000000000000000000000 \
b00000000000000000000000000000000 ]
b00 ^
b00000 _
b00000 `
b000000000000000000 a
b000 b
b000 c
b00000000000000000000000000000000 d
b00000000000000000000000000000000 e
b00000000000000000000000000000000 f
b00000000000000000000000000000000 g
b0000000 h
b000 i
b0000000 j
b00000 k
b00000 l
b00000 m
0n
0o
0p
0q
b00 r
b00 s
b00000000000000000000000000000000 t
b000000000000000000 u
1v
b00000000000000000000000000000000 w
0x
b00000000000000000000000000000000 y
b00000000000000000000000000000000 z
b00000000000000000000000000000100 {
b00000000111100000000001100010011 |
b00000000000000000000000000000000 }
b00000000000000000000000000000000 ~
1!!
0"!
b00 #!
0$!
1%!
b00000000000000000000000000000000 &!
b00000000000000000000000000000000 '!
b00000000000000000000000000000000 (!
b00000000000000000000000000000000 )!
b00000000000000000000000000000000 *!
b00000000000000000000000000000000 +!
b00000000000000000000000000000000 ,!
b00000000000000000000000000000000 -!
b00000000000000000000000000000000 .!
b00000000000000000000000000000000 /!
b00000000000000000000000000000000 0!
b00000000000000000000000000000000 1!
b00000000000000000000000000000000 2!
b00000000000000000000000000000000 3!
b00000000000000000000000000000000 4!
b00000000000000000000000000000000 5!
b00000000000000000000000000000000 6!
b00000000000000000000000000000000 7!
b00000000000000000000000000000000 8!
b00000000000000000000000000000000 9!
b00000000000000000000000000000000 :!
b00000000000000000000000000000000 ;!
b00000000000000000000000000000000 <!
b00000000000000000000000000000000 =!
b00000000000000000000000000000000 >!
b00000000000000000000000000000000 ?!
b00000000000000000000000000000000 @!
b00000000000000000000000000000000 A!
b00000000000000000000000000000000 B!
b00000000000000000000000000000000 C!
b00000000000000000000000000000000 D!
b00000000000000000000000000000000 E!
b00000000000000000000000000000100 F!
b00000000000000000000000000000000 G!
b00000000000000000000000000000000 H!
b00000000000000000000000000000000 I!
b00000000000000000000000000000100 J!
b00000000000000000000000000100000 K!
#1
b00000000000000000000000010000000 )
1$!
0%!
b00000000000000000000000010000000 (!
#2
b00000000000000000000000000011110 d
b00000000000000000000000000001111 e
b00000000111100000000001100010011 g
b0010011 h
b01111 l
b00110 m
1p
1q
b10 s
b00000000000000000000000000001111 t
b100001100000000000 u
b00000000000000000000000000000100 z
b00000000000000000000000000001000 {
b00000000000000000000000000010011 |
0$!
1%!
b00000000000000000000000000001000 F!
b00000000000000000000000000000100 G!
#3
b00000000000000000000000000001111 %
b00000000000000000000000000001111 I
1O
1P
b10 T
b00110 U
b10000 _
b100001100000000000 a
b00000000000000000000000000000000 d
b00000000000000000000000000000100 e
b00000000000000000000000000000100 f
b00000000000000000000000000010011 g
b00000 l
b00000 m
b00000000000000000000000000000000 t
0v
b00000000000000000000000000001111 w
1$!
b00000000000000000000000000001000 G!
#4
b00000000000000000000000000001000 z
b00000000000000000000000000001100 {
0$!
b00000000000000000000000000001100 F!
#5
b00000000000000000000000000000000 %
b00000000000000000000000000000000 I
b00000000000000000000000000000100 L
b00000 U
1X
b00110 Z
b10000 `
b100 b
b00000000000000000000000000001000 e
b00000000000000000000000000001000 f
1v
b00000000000000000000000000000000 w
b00000000000000000000000000001111 y
1$!
b00000000000000000000000000001100 G!
#6
b00000000000000000000000000001100 z
b00000000000000000000000000010000 {
0$!
b00000000000000000000000000010000 F!
#7
1G
b00000000000000000000000000001111 H
b00110 K
b00000000000000000000000000001000 L
b00000000000000000000000000000100 V
b00000 Z
b00000000000000000000000000001111 \
b100 c
b00000000000000000000000000001100 e
b00000000000000000000000000001100 f
b00000000000000000000000000000000 y
1$!
b00000000000000000000000000010000 G!
#8
b00000000000000000000000000001111 -
b00000000000000000000000000010000 z
b00000000000000000000000000010100 {
0$!
b00000000000000000000000000001111 ,!
b00000000000000000000000000010100 F!
#9
b00000000000000000000000000000000 H
b00000 K
b00000000000000000000000000001100 L
b00000000000000000000000000001000 V
b00000000000000000000000000000100 [
b00000000000000000000000000000000 \
b00000000000000000000000000010000 e
b00000000000000000000000000010000 f
1$!
b00000000000000000000000000010100 G!
#10
b00000000000000000000000000010100 z
b00000000000000000000000000011000 {
0$!
b00000000000000000000000000011000 F!
#11
b00000000000000000000000000010000 L
b00000000000000000000000000001100 V
b00000000000000000000000000001000 [
b00000000000000000000000000010100 e
b00000000000000000000000000010100 f
1$!
b00000000000000000000000000011000 G!
#12
b00000000000000000000000000011000 z
b00000000000000000000000000011100 {
b00000000101000110111001110010011 |
0$!
b00000000000000000000000000011100 F!
#13
b00000000000000000000000000010100 L
b00000000000000000000000000010000 V
b00000000000000000000000000001100 [
b00000000000000000000000000010100 d
b00000000000000000000000000100010 e
b00000000000000000000000000011000 f
b00000000101000110111001110010011 g
b111 i
b00110 k
b01010 l
b00111 m
b00000000000000000000000000001010 t
b100001101110000000 u
b00000000000000000000000000001111 }
0!!
1$!
b00000000000000000000000000011100 G!
#14
b00000000000000000000000000011100 z
b00000000000000000000000000100000 {
b00000000000100110110111000010011 |
0$!
b00000000000000000000000000100000 F!
#15
b00000000000000000000000000001111 #
b00000000000000000000000000001010 %
b00000000000000000000000000001010 I
b0000 J
b00000000000000000000000000011000 L
b111 Q
b00111 U
b00000000000000000000000000010100 V
b00000000000000000000000000010000 [
b100001101110000000 a
b00000000000000000000000000000010 d
b00000000000000000000000000011101 e
b00000000000000000000000000011100 f
b00000000000100110110111000010011 g
b110 i
b00001 l
b11100 m
b00000000000000000000000000000001 t
b100001101100000000 u
0v
b00000000000000000000000000001010 w
1$!
b00000000000000000000000000100000 G!
#16
b00000000000000000000000000100000 z
b00000000000000000000000000100100 {
b00000000000000000000000000010011 |
0$!
b00000000000000000000000000100100 F!
#17
b00000000000000000000000000000001 %
b00000000000000000000000000000001 I
b0001 J
b00000000000000000000000000011100 L
b110 Q
b11100 U
b00000000000000000000000000011000 V
b00111 Z
b00000000000000000000000000010100 [
b100001101100000000 a
b00000000000000000000000000000000 d
b00000000000000000000000000100000 e
b00000000000000000000000000100000 f
b00000000000000000000000000010011 g
b000 i
b00000 k
b00000 l
b00000 m
b00000000000000000000000000000000 t
b100001100000000000 u
b00000000000000000000000000001111 w
b00000000000000000000000000001010 y
b00000000000000000000000000000000 }
1!!
1$!
b00000000000000000000000000100100 G!
#18
b00000000000000000000000000100100 z
b00000000000000000000000000101000 {
0$!
b00000000000000000000000000101000 F!
#19
b00000000000000000000000000000000 #
b00000000000000000000000000000000 %
b00000000000000000000000000001010 H
b00000000000000000000000000000000 I
b0010 J
b00111 K
b00000000000000000000000000100000 L
b000 Q
b00000 U
b00000000000000000000000000011100 V
b11100 Z
b00000000000000000000000000011000 [
b00000000000000000000000000001010 \
b100001100000000000 a
b00000000000000000000000000100100 e
b00000000000000000000000000100100 f
1v
b00000000000000000000000000000000 w
b00000000000000000000000000001111 y
1$!
b00000000000000000000000000101000 G!
#20
b00000000000000000000000000001010 .
b00000000000000000000000000101000 z
b00000000000000000000000000101100 {
0$!
b00000000000000000000000000001010 -!
b00000000000000000000000000101100 F!
#21
b00000000000000000000000000001111 H
b11100 K
b00000000000000000000000000100100 L
b00000000000000000000000000100000 V
b00000 Z
b00000000000000000000000000011100 [
b00000000000000000000000000001111 \
b00000000000000000000000000101000 e
b00000000000000000000000000101000 f
b00000000000000000000000000000000 y
1$!
b00000000000000000000000000101100 G!
#22
b00000000000000000000000000001111 C
b00000000000000000000000000101100 z
b00000000000000000000000000110000 {
0$!
b00000000000000000000000000001111 B!
b00000000000000000000000000110000 F!
#23
b00000000000000000000000000000000 H
b00000 K
b00000000000000000000000000101000 L
b00000000000000000000000000100100 V
b00000000000000000000000000100000 [
b00000000000000000000000000000000 \
b00000000000000000000000000101100 e
b00000000000000000000000000101100 f
1$!
b00000000000000000000000000110000 G!
#24
b00000000000000000000000000110000 z
b00000000000000000000000000110100 {
0$!
b00000000000000000000000000110100 F!
#25
b00000000000000000000000000101100 L
b00000000000000000000000000101000 V
b00000000000000000000000000100100 [
b00000000000000000000000000110000 e
b00000000000000000000000000110000 f
1$!
b00000000000000000000000000110100 G!
#26
b00000000000000000000000000110100 z
b00000000000000000000000000111000 {
b00000000011100110010111010110011 |
0$!
b00000000000000000000000000111000 F!
#27
b00000000000000000000000000110000 L
b00000000000000000000000000101100 V
b00000000000000000000000000101000 [
b00000000000000000000000000110100 e
b00000000000000000000000000110100 f
b00000000011100110010111010110011 g
b0110011 h
b010 i
b00110 k
b00111 l
b11101 m
0p
b100000100100000000 u
b00000000000000000000000000001111 }
b00000000000000000000000000001010 ~
0!!
1$!
b00000000000000000000000000111000 G!
#28
b00000000000000000000000000111000 z
b00000000000000000000000000111100 {
b00000000111100111010111100010011 |
0$!
b00000000000000000000000000111100 F!
#29
b00000000000000000000000000001111 #
b00000000000000000000000000001010 $
b00000000000000000000000000001010 I
b0111 J
b00000000000000000000000000110100 L
0O
b010 Q
b11101 U
b00000000000000000000000000110000 V
b00000000000000000000000000101100 [
b100000100100000000 a
b00000000000000000000000000011110 d
b00000000000000000000000001000111 e
b00000000000000000000000000111000 f
b00000000111100111010111100010011 g
b0010011 h
b00111 k
b01111 l
b11110 m
1p
b00000000000000000000000000001111 t
b100001100100000000 u
b00000000000000000000000000001010 }
b00000000000000000000000000000000 ~
1$!
b00000000000000000000000000111100 G!
#30
b00000000000000000000000000111100 z
b00000000000000000000000001000000 {
b00000000000000000000000000000000 |
0$!
b00000000000000000000000001000000 F!
#31
b00000000000000000000000000001010 #
b00000000000000000000000000000000 $
b00000000000000000000000000001111 %
b00000000000000000000000000001010 &
b00000000000000000000000000001111 I
b00000000000000000000000000111000 L
1O
b11110 U
b00000000000000000000000000110100 V
b11101 Z
b00000000000000000000000000110000 [
b100001100100000000 a
b00000000000000000000000000000000 d
b00000000000000000000000000111100 e
b00000000000000000000000000111100 f
b00000000000000000000000000000000 g
b0000000 h
b000 i
b00000 k
b00000 l
b00000 m
0p
0q
b00 s
b00000000000000000000000000000000 t
b000000000000000000 u
0v
b00000000000000000000000000000001 w
b00000000000000000000000000000000 }
1!!
1$!
b00000000000000000000000001000000 G!
#32
b00000000000000000000000001000000 z
b00000000000000000000000001000100 {
0$!
b00000000000000000000000001000100 F!
#33
b00000000000000000000000000000000 #
b00000000000000000000000000000000 %
b00000000000000000000000000000000 &
b00000000000000000000000000000000 I
b0010 J
b11101 K
b00000000000000000000000000111100 L
0O
0P
b000 Q
b00 T
b00000 U
b00000000000000000000000000111000 V
b11110 Z
b00000000000000000000000000110100 [
b00000 _
b000000000000000000 a
b00000000000000000000000001000000 e
b00000000000000000000000001000000 f
1v
b00000000000000000000000000000000 w
b00000000000000000000000000000001 y
1$!
b00000000000000000000000001000100 G!
#34
b00000000000000000000000001000100 z
b00000000000000000000000001001000 {
0$!
b00000000000000000000000001001000 F!
#35
b00000000000000000000000000000001 H
b11110 K
b00000000000000000000000001000000 L
b00000000000000000000000000111100 V
0X
b00000 Z
b00000000000000000000000000111000 [
b00000000000000000000000000000001 \
b00000 `
b000 b
b00000000000000000000000001000100 e
b00000000000000000000000001000100 f
b00000000000000000000000000000000 y
1$!
b00000000000000000000000001001000 G!
#36
b00000000000000000000000000000001 E
b00000000000000000000000001001000 z
b00000000000000000000000001001100 {
0$!
b00000000000000000000000000000001 D!
b00000000000000000000000001001100 F!
#37
0G
b00000000000000000000000000000000 H
b00000 K
b00000000000000000000000001000100 L
b00000000000000000000000001000000 V
b00000000000000000000000000111100 [
b00000000000000000000000000000000 \
b000 c
b00000000000000000000000001001000 e
b00000000000000000000000001001000 f
1$!
b00000000000000000000000001001100 G!
#38
b00000000000000000000000001001100 z
b00000000000000000000000001010000 {
0$!
b00000000000000000000000001010000 F!
#39
b00000000000000000000000001001000 L
b00000000000000000000000001000100 V
b00000000000000000000000001000000 [
b00000000000000000000000001001100 e
b00000000000000000000000001001100 f
1$!
b00000000000000000000000001010000 G!
#40
b00000000000000000000000001010000 z
b00000000000000000000000001010100 {
0$!
b00000000000000000000000001010100 F!
#41
b00000000000000000000000001001100 L
b00000000000000000000000001001000 V
b00000000000000000000000001000100 [
b00000000000000000000000001010000 e
b00000000000000000000000001010000 f
1$!
b00000000000000000000000001010100 G!
#42
b00000000000000000000000001010100 z
b00000000000000000000000001011000 {
0$!
b00000000000000000000000001011000 F!
#43
b00000000000000000000000001010000 L
b00000000000000000000000001001100 V
b00000000000000000000000001001000 [
b00000000000000000000000001010100 e
b00000000000000000000000001010100 f
1$!
b00000000000000000000000001011000 G!
#44
b00000000000000000000000001011000 z
b00000000000000000000000001011100 {
0$!
b00000000000000000000000001011100 F!
#45
b00000000000000000000000001010100 L
b00000000000000000000000001010000 V
b00000000000000000000000001001100 [
b00000000000000000000000001011000 e
b00000000000000000000000001011000 f
1$!
b00000000000000000000000001011100 G!
#46
b00000000000000000000000001011100 z
b00000000000000000000000001100000 {
0$!
b00000000000000000000000001100000 F!
#47
b00000000000000000000000001011000 L
b00000000000000000000000001010100 V
b00000000000000000000000001010000 [
b00000000000000000000000001011100 e
b00000000000000000000000001011100 f
1$!
b00000000000000000000000001100000 G!
#48
b00000000000000000000000001100000 z
b00000000000000000000000001100100 {
0$!
b00000000000000000000000001100100 F!
#49
b00000000000000000000000001011100 L
b00000000000000000000000001011000 V
b00000000000000000000000001010100 [
b00000000000000000000000001100000 e
b00000000000000000000000001100000 f
1$!
b00000000000000000000000001100100 G!
#50
b00000000000000000000000001100100 z
b00000000000000000000000001101000 {
0$!
b00000000000000000000000001101000 F!
#51
b00000000000000000000000001100000 L
b00000000000000000000000001011100 V
b00000000000000000000000001011000 [
b00000000000000000000000001100100 e
b00000000000000000000000001100100 f
1$!
b00000000000000000000000001101000 G!
#52
b00000000000000000000000001101000 z
b00000000000000000000000001101100 {
0$!
b00000000000000000000000001101100 F!
#53
b00000000000000000000000001100100 L
b00000000000000000000000001100000 V
b00000000000000000000000001011100 [
b00000000000000000000000001101000 e
b00000000000000000000000001101000 f
1$!
b00000000000000000000000001101100 G!
#54
b00000000000000000000000001101100 z
b00000000000000000000000001110000 {
0$!
b00000000000000000000000001110000 F!
#55
b00000000000000000000000001101000 L
b00000000000000000000000001100100 V
b00000000000000000000000001100000 [
b00000000000000000000000001101100 e
b00000000000000000000000001101100 f
1$!
b00000000000000000000000001110000 G!
#56
b00000000000000000000000001110000 z
b00000000000000000000000001110100 {
0$!
b00000000000000000000000001110100 F!
#57
b00000000000000000000000001101100 L
b00000000000000000000000001101000 V
b00000000000000000000000001100100 [
b00000000000000000000000001110000 e
b00000000000000000000000001110000 f
1$!
b00000000000000000000000001110100 G!
#58
b00000000000000000000000001110100 z
b00000000000000000000000001111000 {
0$!
b00000000000000000000000001111000 F!
#59
b00000000000000000000000001110000 L
b00000000000000000000000001101100 V
b00000000000000000000000001101000 [
b00000000000000000000000001110100 e
b00000000000000000000000001110100 f
1$!
b00000000000000000000000001111000 G!
#60
b00000000000000000000000001111000 z
b00000000000000000000000001111100 {
0$!
b00000000000000000000000001111100 F!
#61
b00000000000000000000000001110100 L
b00000000000000000000000001110000 V
b00000000000000000000000001101100 [
b00000000000000000000000001111000 e
b00000000000000000000000001111000 f
1$!
b00000000000000000000000001111100 G!
#62
b00000000000000000000000001111100 z
b00000000000000000000000010000000 {
0$!
b00000000000000000000000010000000 F!
